\relax 
\providecommand\hyper@newdestlabel[2]{}
\citation{Munk2013}
\citation{Munk2013}
\citation{Munk2013}
\citation{Munk2013}
\citation{DavariDhall1986,DhallLiu1978}
\citation{Srinivasan2003}
\@writefile{toc}{\contentsline {chapter}{\numberline {8}Multiprocessor Scheduling Policies}{57}{chapter.8}}
\@writefile{lof}{\addvspace {10\p@ }}
\@writefile{lot}{\addvspace {10\p@ }}
\newlabel{chap:multiprocessorShcedulingTheory}{{8}{57}{Multiprocessor Scheduling Policies}{chapter.8}{}}
\@writefile{toc}{\contentsline {section}{\numberline {8.1}Partitioned Earliest Deadline First}{57}{section.8.1}}
\newlabel{sec:theoryPEDF}{{8.1}{57}{Partitioned Earliest Deadline First}{section.8.1}{}}
\citation{Srinivasan2003}
\citation{Srinivasan2003}
\citation{Srinivasan2003}
\citation{BaruahCohenPlaxton1996}
\citation{BaruahCohenPlaxton1996}
\citation{BaruahCohenPlaxton1996}
\citation{Liu1969}
\citation{Liu1969}
\citation{Liu1969}
\citation{Liu1969}
\citation{BaruahRosierHowell1990}
\citation{BaruahCohenPlaxton1996}
\citation{BaruahCohenPlaxton1996}
\citation{BaruahCohenPlaxton1996}
\citation{BaruahCohenPlaxton1996}
\@writefile{toc}{\contentsline {section}{\numberline {8.2}Proportionate Fairness}{58}{section.8.2}}
\newlabel{sec:pfair}{{8.2}{58}{Proportionate Fairness}{section.8.2}{}}
\citation{BaruahCohenPlaxton1996}
\citation{BaruahCohenPlaxton1996}
\citation{BaruahCohenPlaxton1996}
\citation{BaruahCohenPlaxton1996}
\newlabel{eq:pfairShculabilityAssumption}{{8.1}{59}{Proportionate Fairness}{equation.8.2.1}{}}
\newlabel{eq:lag}{{8.2}{59}{Proportionate Fairness}{equation.8.2.2}{}}
\newlabel{eq:lagToBePfair}{{8.3}{59}{Proportionate Fairness}{equation.8.2.3}{}}
\citation{BaruahCohenPlaxton1996}
\citation{BaruahCohenPlaxton1996}
\citation{BaruahCohenPlaxton1996}
\citation{BaruahCohenPlaxton1996}
\citation{BaruahCohenPlaxton1996}
\newlabel{eq:pfairEarliestSlot}{{8.4}{60}{Proportionate Fairness}{equation.8.2.4}{}}
\newlabel{eq:pfairLatestSlot}{{8.5}{60}{Proportionate Fairness}{equation.8.2.5}{}}
\newlabel{eq:pfairExistance}{{8.6}{60}{Proportionate Fairness}{equation.8.2.6}{}}
\@writefile{toc}{\contentsline {subsection}{\numberline {8.2.1}Algorithm PF }{60}{subsection.8.2.1}}
\newlabel{eq:characteristicString}{{8.7}{60}{Algorithm PF }{equation.8.2.7}{}}
\newlabel{eq:finiteCharacteristicString}{{8.8}{60}{Algorithm PF }{equation.8.2.8}{}}
\citation{BaruahCohenPlaxton1996}
\citation{BaruahCohenPlaxton1996}
\citation{BaruahCohenPlaxton1996}
\citation{BaruahCohenPlaxton1996}
\citation{BaruahCohenPlaxton1996}
\citation{BaruahCohenPlaxton1996}
\citation{BaruahCohenPlaxton1996}
\citation{BaruahCohenPlaxton1996}
\citation{BaruahCohenPlaxton1996}
\citation{BaruahCohenPlaxton1996}
\citation{BaruahCohenPlaxton1996}
\citation{BaruahCohenPlaxton1996}
\citation{BaruahCohenPlaxton1996}
\@writefile{lot}{\contentsline {table}{\numberline {8.1}{\ignorespaces Algorithm PF\relax }}{62}{table.caption.9}}
\newlabel{table:pfAlgorithm}{{8.1}{62}{Algorithm PF\relax }{table.caption.9}{}}
\@writefile{toc}{\contentsline {subsubsection}{\numberline {8.2.1.1}The Comparison Algorithm}{62}{subsubsection.8.2.1.1}}
\newlabel{sec:pfComarisonAlgorithm}{{8.2.1.1}{62}{The Comparison Algorithm}{subsubsection.8.2.1.1}{}}
\@writefile{toc}{\contentsline {paragraph}{\numberline {8.2.1.1.1}A Naive Implementation}{62}{paragraph.8.2.1.1.1}}
\@writefile{toc}{\contentsline {paragraph}{\numberline {8.2.1.1.2}An Efficient Implementation}{62}{paragraph.8.2.1.1.2}}
\@writefile{loa}{\contentsline {algorithm}{\numberline {1}{\ignorespaces A naive implementation of the characteristic sub-string comparison algorithm\relax }}{63}{algorithm.1}}
\newlabel{alg:naiveCompare}{{1}{63}{A naive implementation of the characteristic sub-string comparison algorithm\relax }{algorithm.1}{}}
\@writefile{loa}{\contentsline {algorithm}{\numberline {2}{\ignorespaces An efficient implementation of the characteristic sub-string comparison algorithm\relax }}{63}{algorithm.2}}
\newlabel{alg:compare}{{2}{63}{An efficient implementation of the characteristic sub-string comparison algorithm\relax }{algorithm.2}{}}
\citation{BaruahGehrkePlaxton1995}
\citation{BaruahGehrkePlaxton1995}
\citation{BaruahGehrkePlaxton1995}
\citation{BaruahGehrkePlaxton1995}
\citation{BaruahGehrkePlaxton1995}
\citation{BaruahGehrkePlaxton1995}
\citation{BaruahGehrkePlaxton1995}
\@writefile{toc}{\contentsline {subsection}{\numberline {8.2.2}Algorithm PD}{64}{subsection.8.2.2}}
\citation{BaruahGehrkePlaxton1995}
\citation{BaruahGehrkePlaxton1995}
\citation{BaruahGehrkePlaxton1995}
\citation{BrandenburgAnderson2010}
\newlabel{eq:totalOrderPD}{{8.9}{65}{Algorithm PD}{equation.8.2.9}{}}
\newlabel{eq:taskOrderPD}{{8.10}{65}{Algorithm PD}{equation.8.2.10}{}}
\@writefile{lot}{\contentsline {table}{\numberline {8.2}{\ignorespaces Task categorization used by the algorithm PD\relax }}{65}{table.caption.10}}
\newlabel{table:pdAlgorithm}{{8.2}{65}{Task categorization used by the algorithm PD\relax }{table.caption.10}{}}
\citation{ShaRajkumarLehoczky1990,Baker1991,Rajkumar1991}
\citation{BlockLeontyevBrandenburg2007}
\citation{BlockLeontyevBrandenburg2007}
\citation{BlockLeontyevBrandenburg2007}
\@writefile{toc}{\contentsline {section}{\numberline {8.3}Multiprocessor Resource Access Protocol}{66}{section.8.3}}
\@writefile{toc}{\contentsline {subsection}{\numberline {8.3.1}The GSN-EDF Algorithm}{66}{subsection.8.3.1}}
\newlabel{sec:gsnEdfAlg}{{8.3.1}{66}{The GSN-EDF Algorithm}{subsection.8.3.1}{}}
\citation{BlockLeontyevBrandenburg2007}
\citation{BlockLeontyevBrandenburg2007}
\citation{BlockLeontyevBrandenburg2007}
\citation{BlockLeontyevBrandenburg2007}
\citation{BlockLeontyevBrandenburg2007}
\citation{BlockLeontyevBrandenburg2007}
\citation{BlockLeontyevBrandenburg2007}
\@writefile{loa}{\contentsline {algorithm}{\numberline {3}{\ignorespaces Pseudo-code that defines the GSN-EDF algorithm \cite  {BlockLeontyevBrandenburg2007}\relax }}{68}{algorithm.3}}
\newlabel{alg:line:sec1S}{{1}{68}{Pseudo-code that defines the GSN-EDF algorithm \cite {BlockLeontyevBrandenburg2007}\relax }{algorithm.3}{}}
\newlabel{alg:line:sec1E}{{13}{68}{Pseudo-code that defines the GSN-EDF algorithm \cite {BlockLeontyevBrandenburg2007}\relax }{algorithm.3}{}}
\newlabel{alg:line:sec2S}{{14}{68}{Pseudo-code that defines the GSN-EDF algorithm \cite {BlockLeontyevBrandenburg2007}\relax }{algorithm.3}{}}
\newlabel{alg:line:sec2E}{{19}{68}{Pseudo-code that defines the GSN-EDF algorithm \cite {BlockLeontyevBrandenburg2007}\relax }{algorithm.3}{}}
\newlabel{alg:line:sec3S}{{20}{68}{Pseudo-code that defines the GSN-EDF algorithm \cite {BlockLeontyevBrandenburg2007}\relax }{algorithm.3}{}}
\newlabel{alg:line:sec3E}{{39}{68}{Pseudo-code that defines the GSN-EDF algorithm \cite {BlockLeontyevBrandenburg2007}\relax }{algorithm.3}{}}
\newlabel{alg:gsnEDFPseudoCode}{{3}{68}{Pseudo-code that defines the GSN-EDF algorithm \cite {BlockLeontyevBrandenburg2007}\relax }{algorithm.3}{}}
\citation{BlockLeontyevBrandenburg2007}
\citation{BlockLeontyevBrandenburg2007}
\citation{BlockLeontyevBrandenburg2007}
\citation{BlockLeontyevBrandenburg2007}
\citation{BlockLeontyevBrandenburg2007}
\citation{BlockLeontyevBrandenburg2007}
\citation{BlockLeontyevBrandenburg2007}
\citation{BlockLeontyevBrandenburg2007}
\@writefile{toc}{\contentsline {subsection}{\numberline {8.3.2}Flexible Multiprocessor Locking Protocol}{69}{subsection.8.3.2}}
\newlabel{sec:fmlpDescription}{{8.3.2}{69}{Flexible Multiprocessor Locking Protocol}{subsection.8.3.2}{}}
\@writefile{toc}{\contentsline {subsubsection}{\numberline {8.3.2.1}Resource Request Rules}{69}{subsubsection.8.3.2.1}}
\newlabel{sub-sec:resourceRequestRule}{{8.3.2.1}{69}{Resource Request Rules}{subsubsection.8.3.2.1}{}}
\citation{BlockLeontyevBrandenburg2007}
\citation{BlockLeontyevBrandenburg2007}
\citation{BlockLeontyevBrandenburg2007}
\citation{BlockLeontyevBrandenburg2007}
\citation{BlockLeontyevBrandenburg2007}
\citation{BlockLeontyevBrandenburg2007}
\@writefile{toc}{\contentsline {subsubsection}{\numberline {8.3.2.2}Blocking under GSN-EDF with FMLP}{70}{subsubsection.8.3.2.2}}
\citation{BlockLeontyevBrandenburg2007}
\citation{BlockLeontyevBrandenburg2007}
\citation{BlockLeontyevBrandenburg2007}
\citation{BlockLeontyevBrandenburg2007}
\newlabel{eq:fmlpTotalBlockingTime}{{8.11}{71}{Blocking under GSN-EDF with FMLP}{equation.8.3.11}{}}
\@setckpt{chapter9}{
\setcounter{page}{72}
\setcounter{equation}{11}
\setcounter{enumi}{3}
\setcounter{enumii}{0}
\setcounter{enumiii}{0}
\setcounter{enumiv}{0}
\setcounter{footnote}{0}
\setcounter{mpfootnote}{0}
\setcounter{part}{0}
\setcounter{chapter}{8}
\setcounter{section}{3}
\setcounter{subsection}{2}
\setcounter{subsubsection}{2}
\setcounter{paragraph}{0}
\setcounter{subparagraph}{0}
\setcounter{figure}{0}
\setcounter{table}{2}
\setcounter{NAT@ctr}{0}
\setcounter{lstnumber}{1}
\setcounter{ContinuedFloat}{0}
\setcounter{float@type}{16}
\setcounter{algorithm}{3}
\setcounter{ALG@line}{39}
\setcounter{ALG@rem}{0}
\setcounter{ALG@nested}{0}
\setcounter{ALG@Lnr}{2}
\setcounter{ALG@blocknr}{11}
\setcounter{ALG@storecount}{0}
\setcounter{ALG@tmpcounter}{0}
\setcounter{Item}{3}
\setcounter{Hfootnote}{0}
\setcounter{bookmark@seq@number}{77}
\setcounter{blindtext}{1}
\setcounter{Blindtext}{5}
\setcounter{blind@countparstart}{0}
\setcounter{blindlist}{0}
\setcounter{blindlistlevel}{0}
\setcounter{blindlist@level}{0}
\setcounter{blind@listcount}{0}
\setcounter{blind@levelcount}{0}
\setcounter{blind@randomcount}{0}
\setcounter{blind@randommax}{0}
\setcounter{blind@pangramcount}{0}
\setcounter{blind@pangrammax}{0}
\setcounter{@pps}{0}
\setcounter{@ppsavesec}{0}
\setcounter{@ppsaveapp}{0}
\setcounter{parentequation}{0}
\setcounter{lstlisting}{0}
\setcounter{section@level}{0}
}
