\relax 
\providecommand\hyper@newdestlabel[2]{}
\citation{Munk2013}
\citation{Munk2013}
\@writefile{toc}{\contentsline {chapter}{\numberline {9}Implementation}{73}{chapter.9}}
\@writefile{lof}{\addvspace {10\p@ }}
\@writefile{lot}{\addvspace {10\p@ }}
\newlabel{chap:implementation}{{9}{73}{Implementation}{chapter.9}{}}
\@writefile{toc}{\contentsline {section}{\numberline {9.1}Schedulability Analysis}{73}{section.9.1}}
\@writefile{lol}{\contentsline {lstlisting}{\numberline {9.1}Update all tasks in the task model by setting up the \texttt  {executionTime} attribute}{73}{lstlisting.9.1}}
\@writefile{toc}{\contentsline {subsection}{\numberline {9.1.1}Utilization Based Analysis}{74}{subsection.9.1.1}}
\@writefile{lol}{\contentsline {lstlisting}{\numberline {9.2}Checking the period and deadline of every task is not zero, if zero then schedulability analysis will not be done}{74}{lstlisting.9.2}}
\@writefile{lol}{\contentsline {lstlisting}{\numberline {9.3}Checking the necessary condition for schedulability}{75}{lstlisting.9.3}}
\@writefile{toc}{\contentsline {subsection}{\numberline {9.1.2}Response Time Analysis}{75}{subsection.9.1.2}}
\@writefile{lol}{\contentsline {lstlisting}{\numberline {9.4}Exact schedulability analysis without task synchronization for shared resource access inside \texttt  {CheckSystemModel()}}{76}{lstlisting.9.4}}
\@writefile{lol}{\contentsline {lstlisting}{\numberline {9.5}Blocking time calculation for \emph  {simple priority inheritance}}{76}{lstlisting.9.5}}
\@writefile{lol}{\contentsline {lstlisting}{\numberline {9.6}Blocking time calculation for \emph  {priority ceiling protocol}}{76}{lstlisting.9.6}}
\@writefile{lol}{\contentsline {lstlisting}{\numberline {9.7}Schedulability analysis with task synchronization for shared resource access inside \texttt  {CheckSystemModel()}}{76}{lstlisting.9.7}}
\@writefile{toc}{\contentsline {subsection}{\numberline {9.1.3}Demand Bound Analysis}{77}{subsection.9.1.3}}
\@writefile{lol}{\contentsline {lstlisting}{\numberline {9.8}Exact schedulability analysis for EDF without task synchronization for shared resource access inside \texttt  {CheckSystemModel()}}{77}{lstlisting.9.8}}
\@writefile{toc}{\contentsline {section}{\numberline {9.2}Self Suspension}{77}{section.9.2}}
\@writefile{lol}{\contentsline {lstlisting}{\numberline {9.9}Representing self-suspension in the system model}{78}{lstlisting.9.9}}
\@writefile{lol}{\contentsline {lstlisting}{\numberline {9.10}Creation of \texttt  {TerminateSelfSuspensionJob} from \texttt  {TaskMonitor}}{78}{lstlisting.9.10}}
\@writefile{toc}{\contentsline {section}{\numberline {9.3}Non-preemptive Execution}{79}{section.9.3}}
\newlabel{sec:nonPremtiveImpl}{{9.3}{79}{Non-preemptive Execution}{section.9.3}{}}
\@writefile{lol}{\contentsline {lstlisting}{\numberline {9.11}Representing non-preemptive section in the system model}{79}{lstlisting.9.11}}
\@writefile{lol}{\contentsline {lstlisting}{\numberline {9.12}Checking non-preemptive execution inside the dispatch method of the scheduler taken from \emph  {global-EDF}}{80}{lstlisting.9.12}}
\@writefile{toc}{\contentsline {section}{\numberline {9.4}Partitioned EDF}{80}{section.9.4}}
\newlabel{sec:pEDFImpl}{{9.4}{80}{Partitioned EDF}{section.9.4}{}}
\@writefile{lol}{\contentsline {lstlisting}{\numberline {9.13}Task partitioning in the system model for multiprocessor partitioned scheduling approach}{80}{lstlisting.9.13}}
\@writefile{lol}{\contentsline {lstlisting}{\numberline {9.14}P-EDF initializes a single core EDF algorithm for each core}{81}{lstlisting.9.14}}
\citation{BaruahCohenPlaxton1996}
\@writefile{toc}{\contentsline {section}{\numberline {9.5}Proportionate Fairness}{82}{section.9.5}}
\@writefile{lol}{\contentsline {lstlisting}{\numberline {9.15}Generating a dispatch job from \texttt  {Pfair} for every time unit t}{82}{lstlisting.9.15}}
\@writefile{lol}{\contentsline {lstlisting}{\numberline {9.16}Calculation of characteristic string in \texttt  {Pfair}}{83}{lstlisting.9.16}}
\@writefile{lol}{\contentsline {lstlisting}{\numberline {9.17}Categorize tasks into \texttt  {urgetTasks}, \texttt  {tnegruTasks} and \texttt  {contendingTasks}}{83}{lstlisting.9.17}}
\citation{BaruahCohenPlaxton1996}
\@writefile{toc}{\contentsline {subsection}{\numberline {9.5.1}Algorithm PF}{84}{subsection.9.5.1}}
\@writefile{lol}{\contentsline {lstlisting}{\numberline {9.18}Calculating six parameters for the implementation of algorithm~\ref  {alg:naiveCompare}, \texttt  {NaiveCompare} \cite  {BaruahCohenPlaxton1996}}{84}{lstlisting.9.18}}
\citation{BaruahCohenPlaxton1996}
\citation{BaruahCohenPlaxton1996}
\citation{BaruahCohenPlaxton1996}
\@writefile{lol}{\contentsline {lstlisting}{\numberline {9.19}Updating lag multiplied by period value when a task is scheduled \cite  {BaruahCohenPlaxton1996}}{85}{lstlisting.9.19}}
\@writefile{lol}{\contentsline {lstlisting}{\numberline {9.20}Updating lag multiplied by period value when a task is not scheduled \cite  {BaruahCohenPlaxton1996}}{85}{lstlisting.9.20}}
\@writefile{toc}{\contentsline {subsection}{\numberline {9.5.2}Algorithm PD}{86}{subsection.9.5.2}}
\@writefile{lol}{\contentsline {lstlisting}{\numberline {9.21}Calculate PD attributes for heavy tasks}{86}{lstlisting.9.21}}
\@writefile{lol}{\contentsline {lstlisting}{\numberline {9.22}Calculate PD attributes for light tasks}{86}{lstlisting.9.22}}
\citation{BaruahGehrkePlaxton1995}
\citation{BlockLeontyevBrandenburg2007}
\@writefile{toc}{\contentsline {section}{\numberline {9.6}Global Suspendable Non-Preemptive EDF}{87}{section.9.6}}
\citation{Munk2013}
\citation{BlockLeontyevBrandenburg2007}
\@writefile{lol}{\contentsline {lstlisting}{\numberline {9.23}Dispatch method calls itself to process ready tasks}{90}{lstlisting.9.23}}
\@writefile{toc}{\contentsline {section}{\numberline {9.7}Flexible Multiprocessor Locking Protocol}{90}{section.9.7}}
\@writefile{lol}{\contentsline {lstlisting}{\numberline {9.24}Resource nested type in \texttt  {RequestResource} and \texttt  {ReleaseResource}}{90}{lstlisting.9.24}}
\@writefile{lol}{\contentsline {lstlisting}{\numberline {9.25}Providing resource group in the system model}{91}{lstlisting.9.25}}
\@writefile{lol}{\contentsline {lstlisting}{\numberline {9.26}Update \texttt  {ResourceManager} on FMLP group lock}{91}{lstlisting.9.26}}
\@writefile{lol}{\contentsline {lstlisting}{\numberline {9.27}Update \texttt  {ResourceManager} on FMLP group lock release}{91}{lstlisting.9.27}}
\@writefile{toc}{\contentsline {section}{\numberline {9.8}Clusters and Group of Task}{92}{section.9.8}}
\@setckpt{chapter10}{
\setcounter{page}{93}
\setcounter{equation}{0}
\setcounter{enumi}{3}
\setcounter{enumii}{0}
\setcounter{enumiii}{0}
\setcounter{enumiv}{0}
\setcounter{footnote}{0}
\setcounter{mpfootnote}{0}
\setcounter{part}{0}
\setcounter{chapter}{9}
\setcounter{section}{8}
\setcounter{subsection}{0}
\setcounter{subsubsection}{0}
\setcounter{paragraph}{0}
\setcounter{subparagraph}{0}
\setcounter{figure}{0}
\setcounter{table}{0}
\setcounter{NAT@ctr}{0}
\setcounter{lstnumber}{7}
\setcounter{ContinuedFloat}{0}
\setcounter{float@type}{16}
\setcounter{algorithm}{3}
\setcounter{ALG@line}{39}
\setcounter{ALG@rem}{0}
\setcounter{ALG@nested}{0}
\setcounter{ALG@Lnr}{2}
\setcounter{ALG@blocknr}{11}
\setcounter{ALG@storecount}{0}
\setcounter{ALG@tmpcounter}{0}
\setcounter{Item}{6}
\setcounter{Hfootnote}{0}
\setcounter{bookmark@seq@number}{91}
\setcounter{blindtext}{1}
\setcounter{Blindtext}{5}
\setcounter{blind@countparstart}{0}
\setcounter{blindlist}{0}
\setcounter{blindlistlevel}{0}
\setcounter{blindlist@level}{0}
\setcounter{blind@listcount}{0}
\setcounter{blind@levelcount}{0}
\setcounter{blind@randomcount}{0}
\setcounter{blind@randommax}{0}
\setcounter{blind@pangramcount}{0}
\setcounter{blind@pangrammax}{0}
\setcounter{@pps}{0}
\setcounter{@ppsavesec}{0}
\setcounter{@ppsaveapp}{0}
\setcounter{parentequation}{0}
\setcounter{lstlisting}{27}
\setcounter{section@level}{0}
}
