\relax 
\providecommand\hyper@newdestlabel[2]{}
\citation{Munk2013}
\citation{LiuAndersonJames2009}
\@writefile{toc}{\contentsline {chapter}{\numberline {11}Conclusion and Future Work}{101}{chapter.11}}
\@writefile{lof}{\addvspace {10\p@ }}
\@writefile{lot}{\addvspace {10\p@ }}
\newlabel{chap:conclusion}{{11}{101}{Conclusion and Future Work}{chapter.11}{}}
\@writefile{toc}{\contentsline {section}{\numberline {11.1}Conclusion}{101}{section.11.1}}
\citation{BaruahCohenPlaxton1996}
\citation{BlockLeontyevBrandenburg2007}
\citation{Munk2013}
\citation{BaruahCohenPlaxton1996}
\citation{BaruahGehrkePlaxton1995}
\citation{AndersonSrinivasan2000,AndersonSrinivasan2001}
\@writefile{toc}{\contentsline {section}{\numberline {11.2}Future Work}{103}{section.11.2}}
\@setckpt{chapter12}{
\setcounter{page}{105}
\setcounter{equation}{0}
\setcounter{enumi}{2}
\setcounter{enumii}{0}
\setcounter{enumiii}{0}
\setcounter{enumiv}{0}
\setcounter{footnote}{0}
\setcounter{mpfootnote}{0}
\setcounter{part}{0}
\setcounter{chapter}{11}
\setcounter{section}{2}
\setcounter{subsection}{0}
\setcounter{subsubsection}{3}
\setcounter{paragraph}{0}
\setcounter{subparagraph}{0}
\setcounter{figure}{0}
\setcounter{table}{0}
\setcounter{NAT@ctr}{0}
\setcounter{lstnumber}{7}
\setcounter{ContinuedFloat}{0}
\setcounter{float@type}{16}
\setcounter{algorithm}{3}
\setcounter{ALG@line}{39}
\setcounter{ALG@rem}{0}
\setcounter{ALG@nested}{0}
\setcounter{ALG@Lnr}{2}
\setcounter{ALG@blocknr}{11}
\setcounter{ALG@storecount}{0}
\setcounter{ALG@tmpcounter}{0}
\setcounter{Item}{8}
\setcounter{Hfootnote}{0}
\setcounter{bookmark@seq@number}{101}
\setcounter{blindtext}{1}
\setcounter{Blindtext}{5}
\setcounter{blind@countparstart}{0}
\setcounter{blindlist}{0}
\setcounter{blindlistlevel}{0}
\setcounter{blindlist@level}{0}
\setcounter{blind@listcount}{0}
\setcounter{blind@levelcount}{0}
\setcounter{blind@randomcount}{0}
\setcounter{blind@randommax}{0}
\setcounter{blind@pangramcount}{0}
\setcounter{blind@pangrammax}{0}
\setcounter{@pps}{0}
\setcounter{@ppsavesec}{0}
\setcounter{@ppsaveapp}{0}
\setcounter{parentequation}{0}
\setcounter{lstlisting}{0}
\setcounter{section@level}{0}
}
