\relax 
\providecommand\hyper@newdestlabel[2]{}
\citation{LakshmananRajkumar2010}
\citation{RidouardRichardCottet2004,RidouardRichardCottet2006}
\citation{LiuAndersonJames2009}
\citation{LakshmananRajkumar2010}
\citation{LakshmananRajkumar2010}
\@writefile{toc}{\contentsline {chapter}{\numberline {6}Self Suspension, Non-Preemp\discretionary {-}{}{}tive Execution and Interrupt Handling}{45}{chapter.6}}
\@writefile{lof}{\addvspace {10\p@ }}
\@writefile{lot}{\addvspace {10\p@ }}
\newlabel{chap:ssnpeandih}{{6}{45}{Self Suspension, Non-Preemp\-tive Execution and Interrupt Handling}{chapter.6}{}}
\@writefile{toc}{\contentsline {section}{\numberline {6.1}Self Suspension}{45}{section.6.1}}
\newlabel{eq:executionSuspensionSeq}{{6.1}{45}{Self Suspension}{equation.6.1.1}{}}
\citation{BlockLeontyevBrandenburg2007}
\citation{BrandenburgLeontyevAnderson2011}
\@writefile{toc}{\contentsline {section}{\numberline {6.2}Non-Preemptive Execution}{46}{section.6.2}}
\@writefile{toc}{\contentsline {section}{\numberline {6.3}Interrupt Handling}{46}{section.6.3}}
\citation{BrandenburgLeontyevAnderson2011}
\citation{LiuLayland1973}
\citation{JeffayStone1993}
\citation{LiuLayland1973}
\@setckpt{chapter7}{
\setcounter{page}{48}
\setcounter{equation}{1}
\setcounter{enumi}{0}
\setcounter{enumii}{0}
\setcounter{enumiii}{0}
\setcounter{enumiv}{0}
\setcounter{footnote}{0}
\setcounter{mpfootnote}{0}
\setcounter{part}{0}
\setcounter{chapter}{6}
\setcounter{section}{3}
\setcounter{subsection}{0}
\setcounter{subsubsection}{0}
\setcounter{paragraph}{0}
\setcounter{subparagraph}{0}
\setcounter{figure}{0}
\setcounter{table}{0}
\setcounter{NAT@ctr}{0}
\setcounter{lstnumber}{1}
\setcounter{ContinuedFloat}{0}
\setcounter{float@type}{16}
\setcounter{algorithm}{0}
\setcounter{ALG@line}{0}
\setcounter{ALG@rem}{0}
\setcounter{ALG@nested}{0}
\setcounter{ALG@Lnr}{2}
\setcounter{ALG@blocknr}{10}
\setcounter{ALG@storecount}{0}
\setcounter{ALG@tmpcounter}{0}
\setcounter{Item}{0}
\setcounter{Hfootnote}{0}
\setcounter{bookmark@seq@number}{47}
\setcounter{blindtext}{1}
\setcounter{Blindtext}{5}
\setcounter{blind@countparstart}{0}
\setcounter{blindlist}{0}
\setcounter{blindlistlevel}{0}
\setcounter{blindlist@level}{0}
\setcounter{blind@listcount}{0}
\setcounter{blind@levelcount}{0}
\setcounter{blind@randomcount}{0}
\setcounter{blind@randommax}{0}
\setcounter{blind@pangramcount}{0}
\setcounter{blind@pangrammax}{0}
\setcounter{@pps}{0}
\setcounter{@ppsavesec}{0}
\setcounter{@ppsaveapp}{0}
\setcounter{parentequation}{0}
\setcounter{lstlisting}{0}
\setcounter{section@level}{0}
}
