\relax 
\providecommand\hyper@newdestlabel[2]{}
\citation{Munk2013}
\citation{Munk2013}
\citation{Munk2013}
\citation{Munk2013}
\@writefile{toc}{\contentsline {chapter}{\numberline {4}Design}{25}{chapter.4}}
\@writefile{lof}{\addvspace {10\p@ }}
\@writefile{lot}{\addvspace {10\p@ }}
\newlabel{chap:design}{{4}{25}{Design}{chapter.4}{}}
\@writefile{lof}{\contentsline {figure}{\numberline {4.1}{\ignorespaces An overview of the system, software design \cite  {Munk2013}\relax }}{25}{figure.caption.3}}
\newlabel{fig:systemDesign}{{4.1}{25}{An overview of the system, software design \cite {Munk2013}\relax }{figure.caption.3}{}}
\citation{Munk2013}
\citation{Shannon1998}
\citation{Shannon1998}
\citation{Munk2013}
\citation{Munk2013}
\@writefile{toc}{\contentsline {section}{\numberline {4.1}System Model}{26}{section.4.1}}
\citation{Munk2013}
\@writefile{lof}{\contentsline {figure}{\numberline {4.2}{\ignorespaces An overview of the system model\relax }}{27}{figure.caption.4}}
\newlabel{fig:systemModel}{{4.2}{27}{An overview of the system model\relax }{figure.caption.4}{}}
\citation{Munk2013}
\citation{Munk2013}
\@writefile{toc}{\contentsline {subsection}{\numberline {4.1.1}Tasks}{28}{subsection.4.1.1}}
\@writefile{lot}{\contentsline {table}{\numberline {4.1}{\ignorespaces The attributes of the task model with a default value and short description\relax }}{29}{table.caption.5}}
\newlabel{table:taskAttributes}{{4.1}{29}{The attributes of the task model with a default value and short description\relax }{table.caption.5}{}}
\@writefile{toc}{\contentsline {subsubsection}{\numberline {4.1.1.1}Commands}{29}{subsubsection.4.1.1.1}}
\newlabel{sub-sec:commands}{{4.1.1.1}{29}{Commands}{subsubsection.4.1.1.1}{}}
\citation{Munk2013}
\@writefile{toc}{\contentsline {subsubsection}{\numberline {4.1.1.2}Resource Usage}{30}{subsubsection.4.1.1.2}}
\@writefile{toc}{\contentsline {subsection}{\numberline {4.1.2}Cores}{30}{subsection.4.1.2}}
\newlabel{sub-sec:cores}{{4.1.2}{30}{Cores}{subsection.4.1.2}{}}
\citation{Munk2013}
\citation{Munk2013}
\citation{Munk2013}
\citation{Munk2013}
\@writefile{lot}{\contentsline {table}{\numberline {4.2}{\ignorespaces The attributes of the core model with default value and short description\relax }}{31}{table.caption.6}}
\newlabel{table:coreAttributes}{{4.2}{31}{The attributes of the core model with default value and short description\relax }{table.caption.6}{}}
\@writefile{toc}{\contentsline {subsection}{\numberline {4.1.3}Resources}{31}{subsection.4.1.3}}
\citation{Munk2013}
\citation{Munk2013}
\@writefile{lot}{\contentsline {table}{\numberline {4.3}{\ignorespaces The attributes of the resource model with default value and short description\relax }}{32}{table.caption.7}}
\newlabel{table:resourceAttributes}{{4.3}{32}{The attributes of the resource model with default value and short description\relax }{table.caption.7}{}}
\@writefile{toc}{\contentsline {subsection}{\numberline {4.1.4}Events}{32}{subsection.4.1.4}}
\@writefile{toc}{\contentsline {section}{\numberline {4.2}Simulation Parameters}{32}{section.4.2}}
\citation{Munk2013}
\citation{Munk2013}
\citation{Munk2013}
\citation{Munk2013}
\@writefile{toc}{\contentsline {section}{\numberline {4.3}Simulator}{33}{section.4.3}}
\citation{Munk2013}
\citation{Munk2013}
\citation{Munk2013}
\@writefile{toc}{\contentsline {section}{\numberline {4.4}Task Monitor}{34}{section.4.4}}
\@writefile{toc}{\contentsline {section}{\numberline {4.5}Resource Monitor}{34}{section.4.5}}
\@writefile{toc}{\contentsline {section}{\numberline {4.6}Exception Handling}{34}{section.4.6}}
\citation{Munk2013}
\citation{Munk2013}
\@setckpt{chapter5}{
\setcounter{page}{36}
\setcounter{equation}{0}
\setcounter{enumi}{0}
\setcounter{enumii}{0}
\setcounter{enumiii}{0}
\setcounter{enumiv}{0}
\setcounter{footnote}{0}
\setcounter{mpfootnote}{0}
\setcounter{part}{0}
\setcounter{chapter}{4}
\setcounter{section}{6}
\setcounter{subsection}{0}
\setcounter{subsubsection}{0}
\setcounter{paragraph}{0}
\setcounter{subparagraph}{0}
\setcounter{figure}{2}
\setcounter{table}{3}
\setcounter{NAT@ctr}{0}
\setcounter{lstnumber}{1}
\setcounter{ContinuedFloat}{0}
\setcounter{float@type}{16}
\setcounter{algorithm}{0}
\setcounter{ALG@line}{0}
\setcounter{ALG@rem}{0}
\setcounter{ALG@nested}{0}
\setcounter{ALG@Lnr}{2}
\setcounter{ALG@blocknr}{10}
\setcounter{ALG@storecount}{0}
\setcounter{ALG@tmpcounter}{0}
\setcounter{Item}{0}
\setcounter{Hfootnote}{0}
\setcounter{bookmark@seq@number}{33}
\setcounter{blindtext}{1}
\setcounter{Blindtext}{5}
\setcounter{blind@countparstart}{0}
\setcounter{blindlist}{0}
\setcounter{blindlistlevel}{0}
\setcounter{blindlist@level}{0}
\setcounter{blind@listcount}{0}
\setcounter{blind@levelcount}{0}
\setcounter{blind@randomcount}{0}
\setcounter{blind@randommax}{0}
\setcounter{blind@pangramcount}{0}
\setcounter{blind@pangrammax}{0}
\setcounter{@pps}{0}
\setcounter{@ppsavesec}{0}
\setcounter{@ppsaveapp}{0}
\setcounter{parentequation}{0}
\setcounter{lstlisting}{0}
\setcounter{section@level}{0}
}
