\relax 
\providecommand\hyper@newdestlabel[2]{}
\citation{Munk2013}
\citation{Barr2007}
\citation{BurnsWellings2009}
\citation{NelissenMilojevicGoossens2013}
\@writefile{toc}{\contentsline {chapter}{\numberline {2}Definitions}{15}{chapter.2}}
\@writefile{lof}{\addvspace {10\p@ }}
\@writefile{lot}{\addvspace {10\p@ }}
\newlabel{chap:definitions}{{2}{15}{Definitions}{chapter.2}{}}
\@writefile{toc}{\contentsline {section}{\numberline {2.1}An Embedded System}{15}{section.2.1}}
\@writefile{toc}{\contentsline {section}{\numberline {2.2}A Real-Time System}{15}{section.2.2}}
\citation{NelissenMilojevicGoossens2013}
\citation{NelissenMilojevicGoossens2013}
\citation{DavisBurns2011}
\citation{Holman2004}
\citation{Nissanke1997}
\citation{Munk2013}
\@writefile{toc}{\contentsline {section}{\numberline {2.3}Classification of Multiprocessor Systems}{16}{section.2.3}}
\@writefile{toc}{\contentsline {section}{\numberline {2.4}Tasks}{16}{section.2.4}}
\citation{DavisBurns2011}
\citation{DavisBurns2011}
\citation{Devi2006}
\newlabel{sub-sec:synchronousTaskSet}{{2.4}{17}{Tasks}{section.2.4}{}}
\@writefile{toc}{\contentsline {subsection}{\numberline {2.4.1}Periodicity}{17}{subsection.2.4.1}}
\citation{Munk2013}
\citation{DavisZabosBurns2008}
\@writefile{toc}{\contentsline {subsection}{\numberline {2.4.2}Deadlines}{18}{subsection.2.4.2}}
\newlabel{sub-sec:implicitDeadline}{{2.4.2}{18}{Deadlines}{subsection.2.4.2}{}}
\@writefile{toc}{\contentsline {subsection}{\numberline {2.4.3}State Transitions}{18}{subsection.2.4.3}}
\citation{DavisZabosBurns2008}
\citation{DavisZabosBurns2008}
\providecommand*\caption@xref[2]{\@setref\relax\@undefined{#1}}
\newlabel{fig:stateTransition}{{\caption@xref {fig:stateTransition}{ on input line 85}}{19}{State Transitions}{figure.caption.2}{}}
\@writefile{lof}{\contentsline {figure}{\numberline {2.1}{\ignorespaces State transitions of a real-time task\relax }}{19}{figure.caption.2}}
\@writefile{toc}{\contentsline {section}{\numberline {2.5}Schedulability Tests}{19}{section.2.5}}
\@setckpt{chapter2}{
\setcounter{page}{20}
\setcounter{equation}{0}
\setcounter{enumi}{0}
\setcounter{enumii}{0}
\setcounter{enumiii}{0}
\setcounter{enumiv}{0}
\setcounter{footnote}{0}
\setcounter{mpfootnote}{0}
\setcounter{part}{0}
\setcounter{chapter}{2}
\setcounter{section}{5}
\setcounter{subsection}{0}
\setcounter{subsubsection}{0}
\setcounter{paragraph}{0}
\setcounter{subparagraph}{0}
\setcounter{figure}{1}
\setcounter{table}{0}
\setcounter{NAT@ctr}{0}
\setcounter{lstnumber}{1}
\setcounter{ContinuedFloat}{0}
\setcounter{float@type}{16}
\setcounter{algorithm}{0}
\setcounter{ALG@line}{0}
\setcounter{ALG@rem}{0}
\setcounter{ALG@nested}{0}
\setcounter{ALG@Lnr}{2}
\setcounter{ALG@blocknr}{10}
\setcounter{ALG@storecount}{0}
\setcounter{ALG@tmpcounter}{0}
\setcounter{Item}{0}
\setcounter{Hfootnote}{0}
\setcounter{bookmark@seq@number}{14}
\setcounter{blindtext}{1}
\setcounter{Blindtext}{5}
\setcounter{blind@countparstart}{0}
\setcounter{blindlist}{0}
\setcounter{blindlistlevel}{0}
\setcounter{blindlist@level}{0}
\setcounter{blind@listcount}{0}
\setcounter{blind@levelcount}{0}
\setcounter{blind@randomcount}{0}
\setcounter{blind@randommax}{0}
\setcounter{blind@pangramcount}{0}
\setcounter{blind@pangrammax}{0}
\setcounter{@pps}{0}
\setcounter{@ppsavesec}{0}
\setcounter{@ppsaveapp}{0}
\setcounter{parentequation}{0}
\setcounter{lstlisting}{0}
\setcounter{section@level}{0}
}
