\relax 
\providecommand\hyper@newdestlabel[2]{}
\citation{BurnsWellings2009}
\citation{Munk2013}
\citation{WuLiuJyh2005}
\citation{Fidge1998}
\citation{Lehoczky1990,AudsleyBurnsDavis1995}
\citation{LiuLayland1973}
\citation{Dertouzos1974}
\citation{LiuLayland1973}
\citation{WuLiuJyh2005}
\citation{WuLiuJyh2005}
\citation{LiuLayland1973}
\@writefile{toc}{\contentsline {chapter}{\numberline {5}Schedulability Analysis}{37}{chapter.5}}
\@writefile{lof}{\addvspace {10\p@ }}
\@writefile{lot}{\addvspace {10\p@ }}
\newlabel{chap:schedulabilityAnalysis}{{5}{37}{Schedulability Analysis}{chapter.5}{}}
\citation{LiuLayland1973}
\citation{LiuLayland1973}
\citation{LiuLayland1973}
\citation{AudsleyBurnsRichardson1991}
\citation{AudsleyBurnsRichardson1991}
\@writefile{toc}{\contentsline {section}{\numberline {5.1}Utilization Based Schedulability Analysis}{38}{section.5.1}}
\@writefile{toc}{\contentsline {subsection}{\numberline {5.1.1}Rate Monotonic Scheduling}{38}{subsection.5.1.1}}
\newlabel{schedulabilityCondition}{{5.1.1}{38}{Rate Monotonic Scheduling}{equation.5.1.1}{}}
\@writefile{toc}{\contentsline {subsection}{\numberline {5.1.2}Deadline Monotonic Scheduling}{38}{subsection.5.1.2}}
\citation{AudsleyBurnsRichardson1991}
\citation{AudsleyBurnsRichardson1991}
\citation{LiuLayland1973}
\citation{TindellClark1994}
\@writefile{toc}{\contentsline {subsection}{\numberline {5.1.3}Earliest Deadline First}{39}{subsection.5.1.3}}
\newlabel{sub-sec:ubSchedulabilityEDF}{{5.1.3}{39}{Earliest Deadline First}{subsection.5.1.3}{}}
\@writefile{toc}{\contentsline {section}{\numberline {5.2}Response Time Analysis}{39}{section.5.2}}
\citation{DavisZabosBurns2008}
\citation{DavisZabosBurns2008}
\@writefile{toc}{\contentsline {subsection}{\numberline {5.2.1}Exact Schedulability Test}{40}{subsection.5.2.1}}
\newlabel{eq:rtaExact}{{5.6}{40}{Exact Schedulability Test}{equation.5.2.6}{}}
\@writefile{toc}{\contentsline {subsection}{\numberline {5.2.2}Sufficient Schedulability Test}{40}{subsection.5.2.2}}
\newlabel{eq:rtaSufficient}{{5.8}{40}{Sufficient Schedulability Test}{equation.5.2.8}{}}
\newlabel{eq:blcokingTimeDefault}{{5.9}{40}{Sufficient Schedulability Test}{equation.5.2.9}{}}
\citation{Holenderski2008}
\citation{Holenderski2008}
\citation{LiuLayland1973}
\citation{LeungMerrill1980}
\citation{BaruahMokRosier1990}
\newlabel{eq:blcokingTimePCP}{{5.10}{41}{Sufficient Schedulability Test}{equation.5.2.10}{}}
\newlabel{eq:rtaSufficientWithCS}{{5.11}{41}{Sufficient Schedulability Test}{equation.5.2.11}{}}
\@writefile{toc}{\contentsline {section}{\numberline {5.3}Demand Bound Analysis}{41}{section.5.3}}
\citation{BaruahRosierHowell1990,BaruahMokRosier1990,RipollCrespoMok1996}
\newlabel{eq:baruahDemanBound}{{5.12}{42}{Demand Bound Analysis}{equation.5.3.12}{}}
\newlabel{eq:lowerBound}{{5.13}{42}{Demand Bound Analysis}{equation.5.3.13}{}}
\newlabel{eq:upperBound0}{{5.14}{42}{Demand Bound Analysis}{equation.5.3.14}{}}
\newlabel{eq:upperBoundK}{{5.15}{42}{Demand Bound Analysis}{equation.5.3.15}{}}
\newlabel{eq:upperNLowerBound}{{5.16}{42}{Demand Bound Analysis}{equation.5.3.16}{}}
\@writefile{toc}{\contentsline {section}{\numberline {5.4}Summary}{43}{section.5.4}}
\@writefile{lot}{\contentsline {table}{\numberline {5.1}{\ignorespaces Schedulability analysis summary\relax }}{43}{table.caption.8}}
\@setckpt{chapter6}{
\setcounter{page}{44}
\setcounter{equation}{16}
\setcounter{enumi}{0}
\setcounter{enumii}{0}
\setcounter{enumiii}{0}
\setcounter{enumiv}{0}
\setcounter{footnote}{0}
\setcounter{mpfootnote}{0}
\setcounter{part}{0}
\setcounter{chapter}{5}
\setcounter{section}{4}
\setcounter{subsection}{0}
\setcounter{subsubsection}{0}
\setcounter{paragraph}{0}
\setcounter{subparagraph}{0}
\setcounter{figure}{0}
\setcounter{table}{1}
\setcounter{NAT@ctr}{0}
\setcounter{lstnumber}{1}
\setcounter{ContinuedFloat}{0}
\setcounter{float@type}{16}
\setcounter{algorithm}{0}
\setcounter{ALG@line}{0}
\setcounter{ALG@rem}{0}
\setcounter{ALG@nested}{0}
\setcounter{ALG@Lnr}{2}
\setcounter{ALG@blocknr}{10}
\setcounter{ALG@storecount}{0}
\setcounter{ALG@tmpcounter}{0}
\setcounter{Item}{0}
\setcounter{Hfootnote}{0}
\setcounter{bookmark@seq@number}{43}
\setcounter{blindtext}{1}
\setcounter{Blindtext}{5}
\setcounter{blind@countparstart}{0}
\setcounter{blindlist}{0}
\setcounter{blindlistlevel}{0}
\setcounter{blindlist@level}{0}
\setcounter{blind@listcount}{0}
\setcounter{blind@levelcount}{0}
\setcounter{blind@randomcount}{0}
\setcounter{blind@randommax}{0}
\setcounter{blind@pangramcount}{0}
\setcounter{blind@pangrammax}{0}
\setcounter{@pps}{0}
\setcounter{@ppsavesec}{0}
\setcounter{@ppsaveapp}{0}
\setcounter{parentequation}{0}
\setcounter{lstlisting}{0}
\setcounter{section@level}{0}
}
