\relax 
\providecommand\hyper@newdestlabel[2]{}
\citation{Sommerville2011}
\citation{Sommerville2011}
\@writefile{toc}{\contentsline {chapter}{\numberline {3}Project Management and Software Engineering}{21}{chapter.3}}
\@writefile{lof}{\addvspace {10\p@ }}
\@writefile{lot}{\addvspace {10\p@ }}
\newlabel{chap:pmandse}{{3}{21}{Project Management and Software Engineering}{chapter.3}{}}
\@writefile{toc}{\contentsline {section}{\numberline {3.1}Project Management}{21}{section.3.1}}
\citation{Sommerville2011}
\citation{Sommerville2011}
\@writefile{toc}{\contentsline {section}{\numberline {3.2}Software Engineering}{22}{section.3.2}}
\@writefile{toc}{\contentsline {subsection}{\numberline {3.2.1}System Prototyping}{22}{subsection.3.2.1}}
\citation{Sommerville2011}
\citation{Sommerville2011}
\@writefile{toc}{\contentsline {subsection}{\numberline {3.2.2}Incremental Delivery}{23}{subsection.3.2.2}}
\@writefile{toc}{\contentsline {subsection}{\numberline {3.2.3}Continuous Integration}{23}{subsection.3.2.3}}
\@setckpt{chapter3}{
\setcounter{page}{24}
\setcounter{equation}{0}
\setcounter{enumi}{0}
\setcounter{enumii}{0}
\setcounter{enumiii}{0}
\setcounter{enumiv}{0}
\setcounter{footnote}{0}
\setcounter{mpfootnote}{0}
\setcounter{part}{0}
\setcounter{chapter}{3}
\setcounter{section}{2}
\setcounter{subsection}{3}
\setcounter{subsubsection}{0}
\setcounter{paragraph}{0}
\setcounter{subparagraph}{0}
\setcounter{figure}{0}
\setcounter{table}{0}
\setcounter{NAT@ctr}{0}
\setcounter{lstnumber}{1}
\setcounter{ContinuedFloat}{0}
\setcounter{float@type}{16}
\setcounter{algorithm}{0}
\setcounter{ALG@line}{0}
\setcounter{ALG@rem}{0}
\setcounter{ALG@nested}{0}
\setcounter{ALG@Lnr}{2}
\setcounter{ALG@blocknr}{10}
\setcounter{ALG@storecount}{0}
\setcounter{ALG@tmpcounter}{0}
\setcounter{Item}{0}
\setcounter{Hfootnote}{0}
\setcounter{bookmark@seq@number}{20}
\setcounter{blindtext}{1}
\setcounter{Blindtext}{5}
\setcounter{blind@countparstart}{0}
\setcounter{blindlist}{0}
\setcounter{blindlistlevel}{0}
\setcounter{blindlist@level}{0}
\setcounter{blind@listcount}{0}
\setcounter{blind@levelcount}{0}
\setcounter{blind@randomcount}{0}
\setcounter{blind@randommax}{0}
\setcounter{blind@pangramcount}{0}
\setcounter{blind@pangrammax}{0}
\setcounter{@pps}{0}
\setcounter{@ppsavesec}{0}
\setcounter{@ppsaveapp}{0}
\setcounter{parentequation}{0}
\setcounter{lstlisting}{0}
\setcounter{section@level}{0}
}
