\relax 
\providecommand\hyper@newdestlabel[2]{}
\providecommand\HyperFirstAtBeginDocument{\AtBeginDocument}
\HyperFirstAtBeginDocument{\ifx\hyper@anchor\@undefined
\global\let\oldcontentsline\contentsline
\gdef\contentsline#1#2#3#4{\oldcontentsline{#1}{#2}{#3}}
\global\let\oldnewlabel\newlabel
\gdef\newlabel#1#2{\newlabelxx{#1}#2}
\gdef\newlabelxx#1#2#3#4#5#6{\oldnewlabel{#1}{{#2}{#3}}}
\AtEndDocument{\ifx\hyper@anchor\@undefined
\let\contentsline\oldcontentsline
\let\newlabel\oldnewlabel
\fi}
\fi}
\global\let\hyper@last\relax 
\gdef\HyperFirstAtBeginDocument#1{#1}
\providecommand\HyField@AuxAddToFields[1]{}
\providecommand\HyField@AuxAddToCoFields[2]{}
\select@language{USenglish}
\@writefile{toc}{\select@language{USenglish}}
\@writefile{lof}{\select@language{USenglish}}
\@writefile{lot}{\select@language{USenglish}}
\@input{abstract.aux}
\@input{acknowledgement.aux}
\@input{chapter1.aux}
\@input{chapter2.aux}
\@input{chapter3.aux}
\@input{chapter5.aux}
\@input{chapter6.aux}
\@input{chapter7.aux}
\@input{chapter8.aux}
\@input{chapter9.aux}
\@input{chapter10.aux}
\@input{chapter11.aux}
\@input{chapter12.aux}
\bibstyle{plainnat}
\bibdata{reference}
\bibcite{AndersonSrinivasan2000}{{1}{2000}{{Anderson and Srinivasan}}{{}}}
\bibcite{AndersonSrinivasan2001}{{2}{2001}{{Anderson and Srinivasan}}{{}}}
\bibcite{AnderssonBaruahJonsson2001}{{3}{2001}{{Andersson et~al.}}{{Andersson, Baruah, and Jonsson}}}
\bibcite{AudsleyBurnsRichardson1991}{{4}{1991}{{Audsley et~al.}}{{Audsley, Burns, Richardson, and Wellings}}}
\bibcite{AudsleyBurnsDavis1995}{{5}{1995}{{Audsley et~al.}}{{Audsley, Burns, Davis, Tindell, and Wellings}}}
\bibcite{Baker1991}{{6}{1991}{{Baker}}{{}}}
\bibcite{Baker2005}{{7}{2005}{{Baker}}{{}}}
\bibcite{Barr2007}{{8}{2007}{{Barr}}{{}}}
\bibcite{BaruahMokRosier1990}{{9}{1990{}}{{Baruah et~al.}}{{Baruah, Mok, and Rosier}}}
\bibcite{BaruahRosierHowell1990}{{10}{1990{}}{{Baruah et~al.}}{{Baruah, Rosier, and Howell}}}
\bibcite{BaruahGehrkePlaxton1995}{{11}{1995}{{Baruah et~al.}}{{Baruah, Gehrke, and Plaxton}}}
\@writefile{toc}{\vspace *{\baselineskip }}
\@writefile{toc}{\contentsline {chapter}{Bibliography}{105}{section*.20}}
\bibcite{BaruahCohenPlaxton1996}{{12}{1996}{{Baruah et~al.}}{{Baruah, Cohen, Plaxton, and Varvel}}}
\bibcite{BertognaCirineiLipari2009}{{13}{2009}{{Bertogna et~al.}}{{Bertogna, Cirinei, and Lipari}}}
\bibcite{BlockLeontyevBrandenburg2007}{{14}{2007}{{Block et~al.}}{{Block, Leontyev, Brandenburg, and Anderson}}}
\bibcite{BrandenburgAnderson2010}{{15}{2010}{{Brandenburg and Anderson}}{{}}}
\bibcite{BrandenburgLeontyevAnderson2011}{{16}{2011}{{Brandenburg et~al.}}{{Brandenburg, Leontyev, and Anderson}}}
\bibcite{BurnsWellings2009}{{17}{2009}{{Burns and Wellings}}{{}}}
\bibcite{Buttazzo2005}{{18}{2005}{{Buttazzo}}{{}}}
\bibcite{Carpenter2004}{{19}{2004}{{Carpenter et~al.}}{{Carpenter, Funk, Holman, Srinivasan, Anderson, and Baruah}}}
\bibcite{ChenTripathiBlackmore1994}{{20}{1994}{{Chen et~al.}}{{Chen, Tripathi, and Blackmore}}}
\bibcite{DavariDhall1986}{{21}{1986}{{Davari and Dhall}}{{}}}
\bibcite{DavisBurns2011}{{22}{2011}{{Davis and Burns}}{{}}}
\bibcite{DavisZabosBurns2008}{{23}{2008}{{Davis et~al.}}{{Davis, Zabos, and Burns}}}
\bibcite{Dertouzos1974}{{24}{1974}{{Dertouzos}}{{}}}
\bibcite{Devi2006}{{25}{2006}{{Devi}}{{}}}
\bibcite{DeviLeontyevAnderson2006}{{26}{2006}{{Devi et~al.}}{{Devi, Leontyev, and Anderson}}}
\bibcite{DhallLiu1978}{{27}{1978}{{Dhall and Liu}}{{}}}
\bibcite{Fidge1998}{{28}{1998}{{Fidge}}{{}}}
\bibcite{GaiLipariDi2001}{{29}{2001}{{Gai et~al.}}{{Gai, Lipari, and Di~Natale}}}
\bibcite{Holenderski2008}{{30}{2008}{{Holenderski}}{{}}}
\bibcite{Holman2004}{{31}{2004}{{Holman}}{{}}}
\bibcite{JeffayStone1993}{{32}{1993}{{Jeffay and Stone}}{{}}}
\bibcite{KaoChandrakasan2000}{{33}{2000}{{Kao and Chandrakasan}}{{}}}
\bibcite{LakshmananRajkumar2010}{{34}{2010}{{Lakshmanan and Rajkumar}}{{}}}
\bibcite{Lehoczky1990}{{35}{1990}{{Lehoczky}}{{}}}
\bibcite{LeungMerrill1980}{{36}{1980}{{Leung and Merrill}}{{}}}
\bibcite{Liu1969}{{37}{1969}{{Liu}}{{}}}
\bibcite{LiuLayland1973}{{38}{1973}{{Liu and Layland}}{{}}}
\bibcite{LiuAndersonJames2009}{{39}{2009}{{Liu and Anderson}}{{}}}
\bibcite{Liu2000}{{40}{2000}{{Liu}}{{}}}
\bibcite{Munk2013}{{41}{2013}{{Munk}}{{}}}
\bibcite{NelissenMilojevicGoossens2013}{{42}{2013}{{Nelissen et~al.}}{{Nelissen, Milojevic, and Goossens}}}
\bibcite{Nemati2010}{{43}{2010}{{Nemati}}{{}}}
\bibcite{Nissanke1997}{{44}{1997}{{Nissanke}}{{}}}
\bibcite{Rajkumar1991}{{45}{1991}{{Rajkumar}}{{}}}
\bibcite{RajkumarShaLehoczky1988}{{46}{1988}{{Rajkumar et~al.}}{{Rajkumar, Sha, and Lehoczky}}}
\bibcite{RidouardRichardCottet2004}{{47}{2004}{{Ridouard et~al.}}{{Ridouard, Richard, and Cottet}}}
\bibcite{RidouardRichardCottet2006}{{48}{2006}{{Ridouard et~al.}}{{Ridouard, Richard, Cottet, and Traore}}}
\bibcite{RipollCrespoMok1996}{{49}{1996}{{Ripoll et~al.}}{{Ripoll, Crespo, and Mok}}}
\bibcite{KaoMukhopadhyayMeimand2003}{{50}{2003}{{Roy et~al.}}{{Roy, Mukhopadhyay, and Mahmoodi-Meimand}}}
\bibcite{ShaRajkumarLehoczky1990}{{51}{1990}{{Sha et~al.}}{{Sha, Rajkumar, and Lehoczky}}}
\bibcite{Shannon1998}{{52}{1998}{{Shannon}}{{}}}
\bibcite{Sommerville2011}{{53}{2011}{{Sommerville}}{{}}}
\bibcite{SrinivasanHolmanAndersonBaruah2003}{{54}{2003}{{Srinivasan et~al.}}{{Srinivasan, Holman, Anderson, and Baruah}}}
\bibcite{Srinivasan2003}{{55}{2003}{{Srinivasan}}{{}}}
\bibcite{TindellClark1994}{{56}{1994}{{Tindell and Clark}}{{}}}
\bibcite{WoodHill1994}{{57}{1994}{{Wood and Hill}}{{}}}
\bibcite{WuLiuJyh2005}{{58}{2005}{{Wu et~al.}}{{Wu, Liu, and Zhao}}}
\bibcite{YeoRao2005}{{59}{2005}{{Yeo and Roy}}{{}}}
\citation{Munk2013}
\citation{BaruahCohenPlaxton1996}
\@writefile{toc}{\contentsline {chapter}{List of Figures}{110}{chapter*.22}}
\@writefile{toc}{\contentsline {chapter}{List of Tables}{111}{chapter*.23}}
\citation{BaruahCohenPlaxton1996}
\citation{BaruahCohenPlaxton1996}
\citation{BaruahCohenPlaxton1996}
\@writefile{toc}{\contentsline {chapter}{List of Listings}{113}{chapter*.24}}
\@input{abbreviations.aux}
