\relax 
\providecommand\hyper@newdestlabel[2]{}
\@writefile{toc}{\contentsline {chapter}{\numberline {1}Definitions}{9}{chapter.1}}
\@writefile{lof}{\addvspace {10\p@ }}
\@writefile{lot}{\addvspace {10\p@ }}
\newlabel{chap:definitions}{{1}{9}{Definitions}{chapter.1}{}}
\@writefile{toc}{\contentsline {section}{\numberline {1.1}Electronic Control Unit}{9}{section.1.1}}
\@writefile{toc}{\contentsline {section}{\numberline {1.2}Embedded System}{9}{section.1.2}}
\@writefile{toc}{\contentsline {section}{\numberline {1.3}Multi-core System}{9}{section.1.3}}
\citation{steinberg2008emf}
\@writefile{toc}{\contentsline {section}{\numberline {1.4}Eclipse}{10}{section.1.4}}
\@writefile{toc}{\contentsline {subsection}{\numberline {1.4.1}Eclipse Plug-in}{10}{subsection.1.4.1}}
\@writefile{toc}{\contentsline {subsection}{\numberline {1.4.2}Eclipse Rich Client Platform}{10}{subsection.1.4.2}}
\@setckpt{CH_1}{
\setcounter{page}{11}
\setcounter{equation}{0}
\setcounter{enumi}{0}
\setcounter{enumii}{0}
\setcounter{enumiii}{0}
\setcounter{enumiv}{0}
\setcounter{footnote}{0}
\setcounter{mpfootnote}{0}
\setcounter{part}{0}
\setcounter{chapter}{1}
\setcounter{section}{4}
\setcounter{subsection}{2}
\setcounter{subsubsection}{0}
\setcounter{paragraph}{0}
\setcounter{subparagraph}{0}
\setcounter{figure}{0}
\setcounter{table}{0}
\setcounter{NAT@ctr}{0}
\setcounter{lstnumber}{1}
\setcounter{ContinuedFloat}{0}
\setcounter{float@type}{16}
\setcounter{algorithm}{0}
\setcounter{ALG@line}{0}
\setcounter{ALG@rem}{0}
\setcounter{ALG@nested}{0}
\setcounter{ALG@Lnr}{2}
\setcounter{ALG@blocknr}{10}
\setcounter{ALG@storecount}{0}
\setcounter{ALG@tmpcounter}{0}
\setcounter{Item}{0}
\setcounter{Hfootnote}{0}
\setcounter{bookmark@seq@number}{7}
\setcounter{blindtext}{1}
\setcounter{Blindtext}{5}
\setcounter{blind@countparstart}{0}
\setcounter{blindlist}{0}
\setcounter{blindlistlevel}{0}
\setcounter{blindlist@level}{0}
\setcounter{blind@listcount}{0}
\setcounter{blind@levelcount}{0}
\setcounter{blind@randomcount}{0}
\setcounter{blind@randommax}{0}
\setcounter{blind@pangramcount}{0}
\setcounter{blind@pangrammax}{0}
\setcounter{@pps}{0}
\setcounter{@ppsavesec}{0}
\setcounter{@ppsaveapp}{0}
\setcounter{parentequation}{0}
\setcounter{lstlisting}{0}
\setcounter{section@level}{0}
}
