\relax 
\providecommand\hyper@newdestlabel[2]{}
\citation{schmidt2006model}
\citation{selic2013modeling}
\citation{fallside2004xml}
\citation{steinberg2008emf}
\@writefile{toc}{\contentsline {chapter}{\numberline {2}Model Based Development and Eclipse Modeling Framework}{11}{chapter.2}}
\@writefile{lof}{\addvspace {10\p@ }}
\@writefile{lot}{\addvspace {10\p@ }}
\newlabel{chap:ModelBasedDevelopmentandEMF}{{2}{11}{Model Based Development and Eclipse Modeling Framework}{chapter.2}{}}
\@writefile{toc}{\contentsline {section}{\numberline {2.1}Data Model}{11}{section.2.1}}
\@writefile{toc}{\contentsline {section}{\numberline {2.2}Eclipse Modeling Framework}{11}{section.2.2}}
\@writefile{lof}{\contentsline {figure}{\numberline {2.1}{\ignorespaces EMF allows several technologies for model import and export.\relax }}{12}{figure.caption.2}}
\providecommand*\caption@xref[2]{\@setref\relax\@undefined{#1}}
\newlabel{fig:EMF_sources}{{2.1}{12}{EMF allows several technologies for model import and export.\relax }{figure.caption.2}{}}
\@writefile{toc}{\contentsline {section}{\numberline {2.3}An Example Model}{12}{section.2.3}}
\@writefile{lof}{\contentsline {figure}{\numberline {2.2}{\ignorespaces UML Class diagram of the elements of an online shop management application.\relax }}{12}{figure.caption.3}}
\newlabel{fig:po_uml}{{2.2}{12}{UML Class diagram of the elements of an online shop management application.\relax }{figure.caption.3}{}}
\newlabel{lst:label_2_po_xsd}{{2.1}{12}{XML schema definition of purchase order model}{lstlisting.2.1}{}}
\@writefile{lol}{\contentsline {lstlisting}{\numberline {2.1}XML schema definition of purchase order model}{12}{lstlisting.2.1}}
\newlabel{lst:label_2_po_java_interfaces}{{2.2}{13}{Java Interfaces for purchase order model}{lstlisting.2.2}{}}
\@writefile{lol}{\contentsline {lstlisting}{\numberline {2.2}Java Interfaces for purchase order model}{13}{lstlisting.2.2}}
\@writefile{toc}{\contentsline {section}{\numberline {2.4}Ecore Metamodel}{13}{section.2.4}}
\citation{Help-64:online}
\@writefile{lof}{\contentsline {figure}{\numberline {2.3}{\ignorespaces Class hierarchy of the Ecore model, abstract classes are shaded. Source: \citet  {Help-64:online}\relax }}{14}{figure.caption.4}}
\newlabel{fig:Ecore_complete}{{2.3}{14}{Class hierarchy of the Ecore model, abstract classes are shaded. Source: \citet {Help-64:online}\relax }{figure.caption.4}{}}
\citation{www.o92:online}
\@writefile{toc}{\contentsline {section}{\numberline {2.5}Code Generation}{15}{section.2.5}}
\@writefile{lof}{\contentsline {figure}{\numberline {2.4}{\ignorespaces Ecore model editor and Code generation from .genmodel file.\relax }}{15}{figure.caption.5}}
\newlabel{fig:model_editor}{{2.4}{15}{Ecore model editor and Code generation from .genmodel file.\relax }{figure.caption.5}{}}
\@writefile{toc}{\contentsline {subsection}{\numberline {2.5.1}Generated Classes}{15}{subsection.2.5.1}}
\citation{steinberg2008emf}
\@writefile{toc}{\contentsline {section}{\numberline {2.6}Other Important Features}{16}{section.2.6}}
\@writefile{toc}{\contentsline {subsection}{\numberline {2.6.1}Model Change Notification}{16}{subsection.2.6.1}}
\@writefile{toc}{\contentsline {subsection}{\numberline {2.6.2}Model Persistence}{16}{subsection.2.6.2}}
\citation{gamma1995design}
\newlabel{lst:label_2_100}{{2.3}{17}{Preparation of a \texttt {PurchaseOrder} model}{lstlisting.2.3}{}}
\@writefile{lol}{\contentsline {lstlisting}{\numberline {2.3}Preparation of a \texttt  {PurchaseOrder} model}{17}{lstlisting.2.3}}
\newlabel{lst:label_2_101}{{2.4}{17}{Persisting an EMF models via XMI}{lstlisting.2.4}{}}
\@writefile{lol}{\contentsline {lstlisting}{\numberline {2.4}Persisting an EMF models via XMI}{17}{lstlisting.2.4}}
\newlabel{lst:label_2_102}{{2.5}{18}{Contents of \textit {\texttt {model.xml}}}{lstlisting.2.5}{}}
\@writefile{lol}{\contentsline {lstlisting}{\numberline {2.5}Contents of \textit  {\texttt  {model.xml}}}{18}{lstlisting.2.5}}
\newlabel{lst:label_2_103}{{2.6}{18}{Load a model from file}{lstlisting.2.6}{}}
\@writefile{lol}{\contentsline {lstlisting}{\numberline {2.6}Load a model from file}{18}{lstlisting.2.6}}
\@setckpt{CH_2}{
\setcounter{page}{19}
\setcounter{equation}{0}
\setcounter{enumi}{0}
\setcounter{enumii}{0}
\setcounter{enumiii}{0}
\setcounter{enumiv}{0}
\setcounter{footnote}{0}
\setcounter{mpfootnote}{0}
\setcounter{part}{0}
\setcounter{chapter}{2}
\setcounter{section}{6}
\setcounter{subsection}{2}
\setcounter{subsubsection}{0}
\setcounter{paragraph}{0}
\setcounter{subparagraph}{0}
\setcounter{figure}{4}
\setcounter{table}{0}
\setcounter{NAT@ctr}{0}
\setcounter{lstnumber}{11}
\setcounter{ContinuedFloat}{0}
\setcounter{float@type}{16}
\setcounter{algorithm}{0}
\setcounter{ALG@line}{0}
\setcounter{ALG@rem}{0}
\setcounter{ALG@nested}{0}
\setcounter{ALG@Lnr}{2}
\setcounter{ALG@blocknr}{10}
\setcounter{ALG@storecount}{0}
\setcounter{ALG@tmpcounter}{0}
\setcounter{Item}{0}
\setcounter{Hfootnote}{0}
\setcounter{bookmark@seq@number}{17}
\setcounter{blindtext}{1}
\setcounter{Blindtext}{5}
\setcounter{blind@countparstart}{0}
\setcounter{blindlist}{0}
\setcounter{blindlistlevel}{0}
\setcounter{blindlist@level}{0}
\setcounter{blind@listcount}{0}
\setcounter{blind@levelcount}{0}
\setcounter{blind@randomcount}{0}
\setcounter{blind@randommax}{0}
\setcounter{blind@pangramcount}{0}
\setcounter{blind@pangrammax}{0}
\setcounter{@pps}{0}
\setcounter{@ppsavesec}{0}
\setcounter{@ppsaveapp}{0}
\setcounter{parentequation}{0}
\setcounter{lstlisting}{6}
\setcounter{section@level}{0}
}
