\relax 
\providecommand\hyper@newdestlabel[2]{}
\citation{AMALT48:online}
\citation{AMALT48:online}
\@writefile{toc}{\contentsline {chapter}{\numberline {3}AMALTHEA and AMALTHEA Data Models}{19}{chapter.3}}
\@writefile{lof}{\addvspace {10\p@ }}
\@writefile{lot}{\addvspace {10\p@ }}
\newlabel{chap:AMALTHEA_and_AMALTHEA_Data_Models}{{3}{19}{AMALTHEA and AMALTHEA Data Models}{chapter.3}{}}
\@writefile{toc}{\contentsline {section}{\numberline {3.1}AMALTHEA}{19}{section.3.1}}
\@writefile{toc}{\contentsline {subsection}{\numberline {3.1.1}Installation}{19}{subsection.3.1.1}}
\@writefile{lof}{\contentsline {figure}{\numberline {3.1}{\ignorespaces AMALTHEA platform models and basic tools as shown in \citet  {AMALT48:online}.\relax }}{20}{figure.caption.6}}
\newlabel{fig:amalthea_pm_bt}{{3.1}{20}{AMALTHEA platform models and basic tools as shown in \citet {AMALT48:online}.\relax }{figure.caption.6}{}}
\@writefile{toc}{\contentsline {section}{\numberline {3.2}AMALTHEA Data Models}{20}{section.3.2}}
\@writefile{lof}{\contentsline {figure}{\numberline {3.2}{\ignorespaces AMALTHEA Data Models in AMALTHEA content tree.\relax }}{20}{figure.caption.8}}
\newlabel{fig:almathea_content_tree}{{3.2}{20}{AMALTHEA Data Models in AMALTHEA content tree.\relax }{figure.caption.8}{}}
\@writefile{lot}{\contentsline {table}{\numberline {3.1}{\ignorespaces Overview of AMALTHEA Data Models\relax }}{21}{table.caption.7}}
\newlabel{table:amalthea_data_models}{{3.1}{21}{Overview of AMALTHEA Data Models\relax }{table.caption.7}{}}
\@writefile{toc}{\contentsline {subsection}{\numberline {3.2.1}Design and Relationships}{21}{subsection.3.2.1}}
\@writefile{toc}{\contentsline {subsection}{\numberline {3.2.2}Description of selected models}{21}{subsection.3.2.2}}
\@writefile{toc}{\contentsline {subsubsection}{\numberline {3.2.2.1}Hardware Model}{21}{subsubsection.3.2.2.1}}
\@writefile{lof}{\contentsline {figure}{\numberline {3.3}{\ignorespaces AMALTHEA Model Dependencies.\relax }}{22}{figure.caption.9}}
\newlabel{fig:model_dependencies}{{3.3}{22}{AMALTHEA Model Dependencies.\relax }{figure.caption.9}{}}
\@writefile{lof}{\contentsline {figure}{\numberline {3.4}{\ignorespaces Hardware Model overview.\relax }}{23}{figure.caption.10}}
\newlabel{fig:model_hw_overview_small}{{3.4}{23}{Hardware Model overview.\relax }{figure.caption.10}{}}
\@writefile{lof}{\contentsline {figure}{\numberline {3.5}{\ignorespaces An Example of a Hardware Model.\relax }}{24}{figure.caption.11}}
\newlabel{fig:example_hw_model}{{3.5}{24}{An Example of a Hardware Model.\relax }{figure.caption.11}{}}
\@setckpt{CH_3}{
\setcounter{page}{25}
\setcounter{equation}{0}
\setcounter{enumi}{0}
\setcounter{enumii}{0}
\setcounter{enumiii}{0}
\setcounter{enumiv}{0}
\setcounter{footnote}{0}
\setcounter{mpfootnote}{0}
\setcounter{part}{0}
\setcounter{chapter}{3}
\setcounter{section}{2}
\setcounter{subsection}{2}
\setcounter{subsubsection}{1}
\setcounter{paragraph}{0}
\setcounter{subparagraph}{0}
\setcounter{figure}{5}
\setcounter{table}{1}
\setcounter{NAT@ctr}{0}
\setcounter{lstnumber}{11}
\setcounter{ContinuedFloat}{0}
\setcounter{float@type}{16}
\setcounter{algorithm}{0}
\setcounter{ALG@line}{0}
\setcounter{ALG@rem}{0}
\setcounter{ALG@nested}{0}
\setcounter{ALG@Lnr}{2}
\setcounter{ALG@blocknr}{10}
\setcounter{ALG@storecount}{0}
\setcounter{ALG@tmpcounter}{0}
\setcounter{Item}{0}
\setcounter{Hfootnote}{0}
\setcounter{bookmark@seq@number}{24}
\setcounter{blindtext}{1}
\setcounter{Blindtext}{5}
\setcounter{blind@countparstart}{0}
\setcounter{blindlist}{0}
\setcounter{blindlistlevel}{0}
\setcounter{blindlist@level}{0}
\setcounter{blind@listcount}{0}
\setcounter{blind@levelcount}{0}
\setcounter{blind@randomcount}{0}
\setcounter{blind@randommax}{0}
\setcounter{blind@pangramcount}{0}
\setcounter{blind@pangrammax}{0}
\setcounter{@pps}{0}
\setcounter{@ppsavesec}{0}
\setcounter{@ppsaveapp}{0}
\setcounter{parentequation}{0}
\setcounter{lstlisting}{0}
\setcounter{section@level}{0}
}
