\relax 
\providecommand\hyper@newdestlabel[2]{}
\citation{Sommerville2011}
\citation{Sommerville2011}
\citation{Sommerville2011}
\citation{Sommerville2011}
\citation{Sommerville2011}
\citation{Sommerville2011}
\@writefile{toc}{\contentsline {chapter}{\numberline {11}Validation, Test and Results}{101}{chapter.11}}
\@writefile{lof}{\addvspace {10\p@ }}
\@writefile{lot}{\addvspace {10\p@ }}
\newlabel{chap:validationTestandResult}{{11}{101}{Validation, Test and Results}{chapter.11}{}}
\@writefile{toc}{\contentsline {section}{\numberline {11.1}Validation and Test}{101}{section.11.1}}
\@writefile{toc}{\contentsline {subsection}{\numberline {11.1.1}Development Testing}{101}{subsection.11.1.1}}
\@writefile{toc}{\contentsline {subsubsection}{\numberline {11.1.1.1}Unit Testing}{101}{subsubsection.11.1.1.1}}
\citation{Sommerville2011}
\citation{BaruahCohenPlaxton1996}
\citation{Sommerville2011}
\@writefile{toc}{\contentsline {subsubsection}{\numberline {11.1.1.2}Component Testing}{102}{subsubsection.11.1.1.2}}
\citation{BaruahCohenPlaxton1996}
\@writefile{toc}{\contentsline {subsubsection}{\numberline {11.1.1.3}System Testing}{103}{subsubsection.11.1.1.3}}
\@writefile{toc}{\contentsline {section}{\numberline {11.2}Results}{103}{section.11.2}}
\@writefile{lof}{\contentsline {figure}{\numberline {11.1}{\ignorespaces The simulation result of a task set scheduled under RMS where some tasks contain self-suspension delays.\relax }}{104}{figure.caption.11}}
\newlabel{fig:selfsuspentionSimulation}{{11.1}{104}{The simulation result of a task set scheduled under RMS where some tasks contain self-suspension delays.\relax }{figure.caption.11}{}}
\@writefile{lof}{\contentsline {figure}{\numberline {11.2}{\ignorespaces The simulation result of a task set scheduled under EDF where a task contains a non-preemptive section.\relax }}{104}{figure.caption.12}}
\newlabel{fig:non-preemptiveSimulation}{{11.2}{104}{The simulation result of a task set scheduled under EDF where a task contains a non-preemptive section.\relax }{figure.caption.12}{}}
\@writefile{lof}{\contentsline {figure}{\numberline {11.3}{\ignorespaces An example task set taken from \citet  {BaruahCohenPlaxton1996} is scheduled using algorithm PF. The task set only contains execution without using any resource.\relax }}{105}{figure.caption.13}}
\newlabel{fig:pfSimulationOnlyExecution}{{11.3}{105}{An example task set taken from \citet {BaruahCohenPlaxton1996} is scheduled using algorithm PF. The task set only contains execution without using any resource.\relax }{figure.caption.13}{}}
\@writefile{lof}{\contentsline {figure}{\numberline {11.4}{\ignorespaces The same task set scheduled under PD, which has been scheduled under PF in the previous simulation, figure~\ref  {fig:pfSimulationOnlyExecution}.\relax }}{105}{figure.caption.14}}
\newlabel{fig:pdSimulationOnlyExecution}{{11.4}{105}{The same task set scheduled under PD, which has been scheduled under PF in the previous simulation, figure~\ref {fig:pfSimulationOnlyExecution}.\relax }{figure.caption.14}{}}
\@writefile{lof}{\contentsline {figure}{\numberline {11.5}{\ignorespaces The simulation result of a task set scheduled under PF with shared resources.\relax }}{106}{figure.caption.15}}
\newlabel{fig:pfSimulationWithBlocking}{{11.5}{106}{The simulation result of a task set scheduled under PF with shared resources.\relax }{figure.caption.15}{}}
\@writefile{lof}{\contentsline {figure}{\numberline {11.6}{\ignorespaces The notification of the violation of Pfair lag constraint due to task being blocked to access shared resources.\relax }}{106}{figure.caption.16}}
\newlabel{fig:pfLagViolation}{{11.6}{106}{The notification of the violation of Pfair lag constraint due to task being blocked to access shared resources.\relax }{figure.caption.16}{}}
\@writefile{lof}{\contentsline {figure}{\numberline {11.7}{\ignorespaces The simulation result of a task set scheduled under GSN-EDF with the default resource access protocol.\relax }}{107}{figure.caption.17}}
\newlabel{fig:gsn-edfUsingDefault}{{11.7}{107}{The simulation result of a task set scheduled under GSN-EDF with the default resource access protocol.\relax }{figure.caption.17}{}}
\@writefile{lof}{\contentsline {figure}{\numberline {11.8}{\ignorespaces The simulation result of a task set scheduled under GSN-EDF with FMLP where a task gets blocked while accessing a shared resource that is a long resource. The resource is free but the group to which this resource belongs to is locked by another task, thus, the requested task is blocked.\relax }}{107}{figure.caption.18}}
\newlabel{fig:gsn-edfUsingFMLP}{{11.8}{107}{The simulation result of a task set scheduled under GSN-EDF with FMLP where a task gets blocked while accessing a shared resource that is a long resource. The resource is free but the group to which this resource belongs to is locked by another task, thus, the requested task is blocked.\relax }{figure.caption.18}{}}
\@writefile{lof}{\contentsline {figure}{\numberline {11.9}{\ignorespaces The simulation result of a task set scheduled under P-EDF with the default resource access protocol.\relax }}{108}{figure.caption.19}}
\newlabel{fig:gsn-pedfUsingDefault}{{11.9}{108}{The simulation result of a task set scheduled under P-EDF with the default resource access protocol.\relax }{figure.caption.19}{}}
\@setckpt{chapter11}{
\setcounter{page}{109}
\setcounter{equation}{0}
\setcounter{enumi}{2}
\setcounter{enumii}{0}
\setcounter{enumiii}{0}
\setcounter{enumiv}{0}
\setcounter{footnote}{0}
\setcounter{mpfootnote}{0}
\setcounter{part}{0}
\setcounter{chapter}{11}
\setcounter{section}{2}
\setcounter{subsection}{0}
\setcounter{subsubsection}{0}
\setcounter{paragraph}{0}
\setcounter{subparagraph}{0}
\setcounter{figure}{9}
\setcounter{table}{0}
\setcounter{NAT@ctr}{0}
\setcounter{lstnumber}{7}
\setcounter{ContinuedFloat}{0}
\setcounter{float@type}{16}
\setcounter{algorithm}{3}
\setcounter{ALG@line}{39}
\setcounter{ALG@rem}{0}
\setcounter{ALG@nested}{0}
\setcounter{ALG@Lnr}{2}
\setcounter{ALG@blocknr}{11}
\setcounter{ALG@storecount}{0}
\setcounter{ALG@tmpcounter}{0}
\setcounter{Item}{8}
\setcounter{Hfootnote}{0}
\setcounter{bookmark@seq@number}{103}
\setcounter{blindtext}{1}
\setcounter{Blindtext}{5}
\setcounter{blind@countparstart}{0}
\setcounter{blindlist}{0}
\setcounter{blindlistlevel}{0}
\setcounter{blindlist@level}{0}
\setcounter{blind@listcount}{0}
\setcounter{blind@levelcount}{0}
\setcounter{blind@randomcount}{0}
\setcounter{blind@randommax}{0}
\setcounter{blind@pangramcount}{0}
\setcounter{blind@pangrammax}{0}
\setcounter{@pps}{0}
\setcounter{@ppsavesec}{0}
\setcounter{@ppsaveapp}{0}
\setcounter{parentequation}{0}
\setcounter{lstlisting}{0}
\setcounter{section@level}{0}
}
