\relax 
\providecommand\hyper@newdestlabel[2]{}
\citation{BurnsWellings2009}
\citation{Munk2013}
\citation{WuLiuJyh2005}
\citation{Fidge1998}
\citation{Lehoczky1990,AudsleyBurnsDavis1995}
\citation{LiuLayland1973}
\citation{Dertouzos1974}
\citation{LiuLayland1973}
\citation{WuLiuJyh2005}
\citation{WuLiuJyh2005}
\citation{LiuLayland1973}
\@writefile{toc}{\contentsline {chapter}{\numberline {6}Schedulability Analysis}{41}{chapter.6}}
\@writefile{lof}{\addvspace {10\p@ }}
\@writefile{lot}{\addvspace {10\p@ }}
\newlabel{chap:schedulabilityAnalysis}{{6}{41}{Schedulability Analysis}{chapter.6}{}}
\citation{LiuLayland1973}
\citation{LiuLayland1973}
\citation{LiuLayland1973}
\citation{AudsleyBurnsRichardson1991}
\citation{AudsleyBurnsRichardson1991}
\@writefile{toc}{\contentsline {section}{\numberline {6.1}Utilization Based Schedulability Analysis}{42}{section.6.1}}
\@writefile{toc}{\contentsline {subsection}{\numberline {6.1.1}Rate Monotonic Scheduling}{42}{subsection.6.1.1}}
\newlabel{schedulabilityCondition}{{6.1.1}{42}{Rate Monotonic Scheduling}{equation.6.1.1}{}}
\@writefile{toc}{\contentsline {subsection}{\numberline {6.1.2}Deadline Monotonic Scheduling}{42}{subsection.6.1.2}}
\citation{AudsleyBurnsRichardson1991}
\citation{AudsleyBurnsRichardson1991}
\citation{LiuLayland1973}
\citation{TindellClark1994}
\@writefile{toc}{\contentsline {subsection}{\numberline {6.1.3}Earliest Deadline First}{43}{subsection.6.1.3}}
\newlabel{sub-sec:ubSchedulabilityEDF}{{6.1.3}{43}{Earliest Deadline First}{subsection.6.1.3}{}}
\@writefile{toc}{\contentsline {section}{\numberline {6.2}Response Time Analysis}{43}{section.6.2}}
\citation{DavisZabosBurns2008}
\citation{DavisZabosBurns2008}
\@writefile{toc}{\contentsline {subsection}{\numberline {6.2.1}Exact Schedulability Test}{44}{subsection.6.2.1}}
\newlabel{eq:rtaExact}{{6.6}{44}{Exact Schedulability Test}{equation.6.2.6}{}}
\@writefile{toc}{\contentsline {subsection}{\numberline {6.2.2}Sufficient Schedulability Test}{44}{subsection.6.2.2}}
\newlabel{eq:rtaSufficient}{{6.8}{44}{Sufficient Schedulability Test}{equation.6.2.8}{}}
\newlabel{eq:blcokingTimeDefault}{{6.9}{44}{Sufficient Schedulability Test}{equation.6.2.9}{}}
\citation{Holenderski2008}
\citation{Holenderski2008}
\citation{LiuLayland1973}
\citation{LeungMerrill1980}
\citation{BaruahMokRosier1990}
\newlabel{eq:blcokingTimePCP}{{6.10}{45}{Sufficient Schedulability Test}{equation.6.2.10}{}}
\newlabel{eq:rtaSufficientWithCS}{{6.11}{45}{Sufficient Schedulability Test}{equation.6.2.11}{}}
\@writefile{toc}{\contentsline {section}{\numberline {6.3}Demand Bound Analysis}{45}{section.6.3}}
\citation{BaruahRosierHowell1990,BaruahMokRosier1990,RipollCrespoMok1996}
\newlabel{eq:baruahDemanBound}{{6.12}{46}{Demand Bound Analysis}{equation.6.3.12}{}}
\newlabel{eq:lowerBound}{{6.13}{46}{Demand Bound Analysis}{equation.6.3.13}{}}
\newlabel{eq:upperBound0}{{6.14}{46}{Demand Bound Analysis}{equation.6.3.14}{}}
\newlabel{eq:upperBoundK}{{6.15}{46}{Demand Bound Analysis}{equation.6.3.15}{}}
\newlabel{eq:upperNLowerBound}{{6.16}{46}{Demand Bound Analysis}{equation.6.3.16}{}}
\@writefile{toc}{\contentsline {section}{\numberline {6.4}Summary}{47}{section.6.4}}
\@writefile{lot}{\contentsline {table}{\numberline {6.1}{\ignorespaces Schedulability analysis summary\relax }}{47}{table.caption.8}}
\@setckpt{chapter6}{
\setcounter{page}{48}
\setcounter{equation}{16}
\setcounter{enumi}{0}
\setcounter{enumii}{0}
\setcounter{enumiii}{0}
\setcounter{enumiv}{0}
\setcounter{footnote}{0}
\setcounter{mpfootnote}{0}
\setcounter{part}{0}
\setcounter{chapter}{6}
\setcounter{section}{4}
\setcounter{subsection}{0}
\setcounter{subsubsection}{0}
\setcounter{paragraph}{0}
\setcounter{subparagraph}{0}
\setcounter{figure}{0}
\setcounter{table}{1}
\setcounter{NAT@ctr}{0}
\setcounter{lstnumber}{11}
\setcounter{ContinuedFloat}{0}
\setcounter{float@type}{16}
\setcounter{algorithm}{0}
\setcounter{ALG@line}{0}
\setcounter{ALG@rem}{0}
\setcounter{ALG@nested}{0}
\setcounter{ALG@Lnr}{2}
\setcounter{ALG@blocknr}{10}
\setcounter{ALG@storecount}{0}
\setcounter{ALG@tmpcounter}{0}
\setcounter{Item}{0}
\setcounter{Hfootnote}{0}
\setcounter{bookmark@seq@number}{46}
\setcounter{blindtext}{1}
\setcounter{Blindtext}{5}
\setcounter{blind@countparstart}{0}
\setcounter{blindlist}{0}
\setcounter{blindlistlevel}{0}
\setcounter{blindlist@level}{0}
\setcounter{blind@listcount}{0}
\setcounter{blind@levelcount}{0}
\setcounter{blind@randomcount}{0}
\setcounter{blind@randommax}{0}
\setcounter{blind@pangramcount}{0}
\setcounter{blind@pangrammax}{0}
\setcounter{@pps}{0}
\setcounter{@ppsavesec}{0}
\setcounter{@ppsaveapp}{0}
\setcounter{parentequation}{0}
\setcounter{lstlisting}{0}
\setcounter{section@level}{0}
}
