\relax 
\providecommand\hyper@newdestlabel[2]{}
\citation{Munk2013}
\citation{Munk2013}
\citation{Munk2013}
\citation{Munk2013}
\citation{DavariDhall1986,DhallLiu1978}
\citation{Srinivasan2003}
\@writefile{toc}{\contentsline {chapter}{\numberline {9}Multiprocessor Scheduling Policies}{61}{chapter.9}}
\@writefile{lof}{\addvspace {10\p@ }}
\@writefile{lot}{\addvspace {10\p@ }}
\newlabel{chap:multiprocessorShcedulingTheory}{{9}{61}{Multiprocessor Scheduling Policies}{chapter.9}{}}
\@writefile{toc}{\contentsline {section}{\numberline {9.1}Partitioned Earliest Deadline First}{61}{section.9.1}}
\newlabel{sec:theoryPEDF}{{9.1}{61}{Partitioned Earliest Deadline First}{section.9.1}{}}
\citation{Srinivasan2003}
\citation{Srinivasan2003}
\citation{Srinivasan2003}
\citation{BaruahCohenPlaxton1996}
\citation{BaruahCohenPlaxton1996}
\citation{BaruahCohenPlaxton1996}
\citation{Liu1969}
\citation{Liu1969}
\citation{Liu1969}
\citation{Liu1969}
\citation{BaruahRosierHowell1990}
\citation{BaruahCohenPlaxton1996}
\citation{BaruahCohenPlaxton1996}
\citation{BaruahCohenPlaxton1996}
\citation{BaruahCohenPlaxton1996}
\@writefile{toc}{\contentsline {section}{\numberline {9.2}Proportionate Fairness}{62}{section.9.2}}
\newlabel{sec:pfair}{{9.2}{62}{Proportionate Fairness}{section.9.2}{}}
\citation{BaruahCohenPlaxton1996}
\citation{BaruahCohenPlaxton1996}
\citation{BaruahCohenPlaxton1996}
\citation{BaruahCohenPlaxton1996}
\newlabel{eq:pfairShculabilityAssumption}{{9.1}{63}{Proportionate Fairness}{equation.9.2.1}{}}
\newlabel{eq:lag}{{9.2}{63}{Proportionate Fairness}{equation.9.2.2}{}}
\newlabel{eq:lagToBePfair}{{9.3}{63}{Proportionate Fairness}{equation.9.2.3}{}}
\citation{BaruahCohenPlaxton1996}
\citation{BaruahCohenPlaxton1996}
\citation{BaruahCohenPlaxton1996}
\citation{BaruahCohenPlaxton1996}
\citation{BaruahCohenPlaxton1996}
\newlabel{eq:pfairEarliestSlot}{{9.4}{64}{Proportionate Fairness}{equation.9.2.4}{}}
\newlabel{eq:pfairLatestSlot}{{9.5}{64}{Proportionate Fairness}{equation.9.2.5}{}}
\newlabel{eq:pfairExistance}{{9.6}{64}{Proportionate Fairness}{equation.9.2.6}{}}
\@writefile{toc}{\contentsline {subsection}{\numberline {9.2.1}Algorithm PF }{64}{subsection.9.2.1}}
\newlabel{eq:characteristicString}{{9.7}{64}{Algorithm PF }{equation.9.2.7}{}}
\newlabel{eq:finiteCharacteristicString}{{9.8}{64}{Algorithm PF }{equation.9.2.8}{}}
\citation{BaruahCohenPlaxton1996}
\citation{BaruahCohenPlaxton1996}
\citation{BaruahCohenPlaxton1996}
\citation{BaruahCohenPlaxton1996}
\citation{BaruahCohenPlaxton1996}
\citation{BaruahCohenPlaxton1996}
\citation{BaruahCohenPlaxton1996}
\citation{BaruahCohenPlaxton1996}
\citation{BaruahCohenPlaxton1996}
\citation{BaruahCohenPlaxton1996}
\citation{BaruahCohenPlaxton1996}
\citation{BaruahCohenPlaxton1996}
\citation{BaruahCohenPlaxton1996}
\@writefile{lot}{\contentsline {table}{\numberline {9.1}{\ignorespaces Algorithm PF\relax }}{66}{table.caption.9}}
\newlabel{table:pfAlgorithm}{{9.1}{66}{Algorithm PF\relax }{table.caption.9}{}}
\@writefile{toc}{\contentsline {subsubsection}{\numberline {9.2.1.1}The Comparison Algorithm}{66}{subsubsection.9.2.1.1}}
\newlabel{sec:pfComarisonAlgorithm}{{9.2.1.1}{66}{The Comparison Algorithm}{subsubsection.9.2.1.1}{}}
\@writefile{toc}{\contentsline {paragraph}{\numberline {9.2.1.1.1}A Naive Implementation}{66}{paragraph.9.2.1.1.1}}
\@writefile{toc}{\contentsline {paragraph}{\numberline {9.2.1.1.2}An Efficient Implementation}{66}{paragraph.9.2.1.1.2}}
\@writefile{loa}{\contentsline {algorithm}{\numberline {1}{\ignorespaces A naive implementation of the characteristic sub-string comparison algorithm\relax }}{67}{algorithm.1}}
\newlabel{alg:naiveCompare}{{1}{67}{A naive implementation of the characteristic sub-string comparison algorithm\relax }{algorithm.1}{}}
\@writefile{loa}{\contentsline {algorithm}{\numberline {2}{\ignorespaces An efficient implementation of the characteristic sub-string comparison algorithm\relax }}{67}{algorithm.2}}
\newlabel{alg:compare}{{2}{67}{An efficient implementation of the characteristic sub-string comparison algorithm\relax }{algorithm.2}{}}
\citation{BaruahGehrkePlaxton1995}
\citation{BaruahGehrkePlaxton1995}
\citation{BaruahGehrkePlaxton1995}
\citation{BaruahGehrkePlaxton1995}
\citation{BaruahGehrkePlaxton1995}
\citation{BaruahGehrkePlaxton1995}
\citation{BaruahGehrkePlaxton1995}
\@writefile{toc}{\contentsline {subsection}{\numberline {9.2.2}Algorithm PD}{68}{subsection.9.2.2}}
\citation{BaruahGehrkePlaxton1995}
\citation{BaruahGehrkePlaxton1995}
\citation{BaruahGehrkePlaxton1995}
\citation{BrandenburgAnderson2010}
\newlabel{eq:totalOrderPD}{{9.9}{69}{Algorithm PD}{equation.9.2.9}{}}
\newlabel{eq:taskOrderPD}{{9.10}{69}{Algorithm PD}{equation.9.2.10}{}}
\@writefile{lot}{\contentsline {table}{\numberline {9.2}{\ignorespaces Task categorization used by the algorithm PD\relax }}{69}{table.caption.10}}
\newlabel{table:pdAlgorithm}{{9.2}{69}{Task categorization used by the algorithm PD\relax }{table.caption.10}{}}
\citation{ShaRajkumarLehoczky1990,Baker1991,Rajkumar1991}
\citation{BlockLeontyevBrandenburg2007}
\citation{BlockLeontyevBrandenburg2007}
\citation{BlockLeontyevBrandenburg2007}
\@writefile{toc}{\contentsline {section}{\numberline {9.3}Multiprocessor Resource Access Protocol}{70}{section.9.3}}
\@writefile{toc}{\contentsline {subsection}{\numberline {9.3.1}The GSN-EDF Algorithm}{70}{subsection.9.3.1}}
\newlabel{sec:gsnEdfAlg}{{9.3.1}{70}{The GSN-EDF Algorithm}{subsection.9.3.1}{}}
\citation{BlockLeontyevBrandenburg2007}
\citation{BlockLeontyevBrandenburg2007}
\citation{BlockLeontyevBrandenburg2007}
\citation{BlockLeontyevBrandenburg2007}
\citation{BlockLeontyevBrandenburg2007}
\citation{BlockLeontyevBrandenburg2007}
\citation{BlockLeontyevBrandenburg2007}
\@writefile{loa}{\contentsline {algorithm}{\numberline {3}{\ignorespaces Pseudo-code that defines the GSN-EDF algorithm \cite  {BlockLeontyevBrandenburg2007}\relax }}{72}{algorithm.3}}
\newlabel{alg:line:sec1S}{{1}{72}{Pseudo-code that defines the GSN-EDF algorithm \cite {BlockLeontyevBrandenburg2007}\relax }{algorithm.3}{}}
\newlabel{alg:line:sec1E}{{13}{72}{Pseudo-code that defines the GSN-EDF algorithm \cite {BlockLeontyevBrandenburg2007}\relax }{algorithm.3}{}}
\newlabel{alg:line:sec2S}{{14}{72}{Pseudo-code that defines the GSN-EDF algorithm \cite {BlockLeontyevBrandenburg2007}\relax }{algorithm.3}{}}
\newlabel{alg:line:sec2E}{{19}{72}{Pseudo-code that defines the GSN-EDF algorithm \cite {BlockLeontyevBrandenburg2007}\relax }{algorithm.3}{}}
\newlabel{alg:line:sec3S}{{20}{72}{Pseudo-code that defines the GSN-EDF algorithm \cite {BlockLeontyevBrandenburg2007}\relax }{algorithm.3}{}}
\newlabel{alg:line:sec3E}{{39}{72}{Pseudo-code that defines the GSN-EDF algorithm \cite {BlockLeontyevBrandenburg2007}\relax }{algorithm.3}{}}
\newlabel{alg:gsnEDFPseudoCode}{{3}{72}{Pseudo-code that defines the GSN-EDF algorithm \cite {BlockLeontyevBrandenburg2007}\relax }{algorithm.3}{}}
\citation{BlockLeontyevBrandenburg2007}
\citation{BlockLeontyevBrandenburg2007}
\citation{BlockLeontyevBrandenburg2007}
\citation{BlockLeontyevBrandenburg2007}
\citation{BlockLeontyevBrandenburg2007}
\citation{BlockLeontyevBrandenburg2007}
\citation{BlockLeontyevBrandenburg2007}
\citation{BlockLeontyevBrandenburg2007}
\@writefile{toc}{\contentsline {subsection}{\numberline {9.3.2}Flexible Multiprocessor Locking Protocol}{73}{subsection.9.3.2}}
\newlabel{sec:fmlpDescription}{{9.3.2}{73}{Flexible Multiprocessor Locking Protocol}{subsection.9.3.2}{}}
\@writefile{toc}{\contentsline {subsubsection}{\numberline {9.3.2.1}Resource Request Rules}{73}{subsubsection.9.3.2.1}}
\newlabel{sub-sec:resourceRequestRule}{{9.3.2.1}{73}{Resource Request Rules}{subsubsection.9.3.2.1}{}}
\citation{BlockLeontyevBrandenburg2007}
\citation{BlockLeontyevBrandenburg2007}
\citation{BlockLeontyevBrandenburg2007}
\citation{BlockLeontyevBrandenburg2007}
\citation{BlockLeontyevBrandenburg2007}
\citation{BlockLeontyevBrandenburg2007}
\@writefile{toc}{\contentsline {subsubsection}{\numberline {9.3.2.2}Blocking under GSN-EDF with FMLP}{74}{subsubsection.9.3.2.2}}
\citation{BlockLeontyevBrandenburg2007}
\citation{BlockLeontyevBrandenburg2007}
\citation{BlockLeontyevBrandenburg2007}
\citation{BlockLeontyevBrandenburg2007}
\newlabel{eq:fmlpTotalBlockingTime}{{9.11}{75}{Blocking under GSN-EDF with FMLP}{equation.9.3.11}{}}
\@setckpt{chapter9}{
\setcounter{page}{76}
\setcounter{equation}{11}
\setcounter{enumi}{3}
\setcounter{enumii}{0}
\setcounter{enumiii}{0}
\setcounter{enumiv}{0}
\setcounter{footnote}{0}
\setcounter{mpfootnote}{0}
\setcounter{part}{0}
\setcounter{chapter}{9}
\setcounter{section}{3}
\setcounter{subsection}{2}
\setcounter{subsubsection}{2}
\setcounter{paragraph}{0}
\setcounter{subparagraph}{0}
\setcounter{figure}{0}
\setcounter{table}{2}
\setcounter{NAT@ctr}{0}
\setcounter{lstnumber}{11}
\setcounter{ContinuedFloat}{0}
\setcounter{float@type}{16}
\setcounter{algorithm}{3}
\setcounter{ALG@line}{39}
\setcounter{ALG@rem}{0}
\setcounter{ALG@nested}{0}
\setcounter{ALG@Lnr}{2}
\setcounter{ALG@blocknr}{11}
\setcounter{ALG@storecount}{0}
\setcounter{ALG@tmpcounter}{0}
\setcounter{Item}{3}
\setcounter{Hfootnote}{0}
\setcounter{bookmark@seq@number}{80}
\setcounter{blindtext}{1}
\setcounter{Blindtext}{5}
\setcounter{blind@countparstart}{0}
\setcounter{blindlist}{0}
\setcounter{blindlistlevel}{0}
\setcounter{blindlist@level}{0}
\setcounter{blind@listcount}{0}
\setcounter{blind@levelcount}{0}
\setcounter{blind@randomcount}{0}
\setcounter{blind@randommax}{0}
\setcounter{blind@pangramcount}{0}
\setcounter{blind@pangrammax}{0}
\setcounter{@pps}{0}
\setcounter{@ppsavesec}{0}
\setcounter{@ppsaveapp}{0}
\setcounter{parentequation}{0}
\setcounter{lstlisting}{0}
\setcounter{section@level}{0}
}
