\relax 
\providecommand\hyper@newdestlabel[2]{}
\citation{Munk2013}
\citation{steinberg2008emf}
\@writefile{toc}{\contentsline {chapter}{\numberline {2}Implementation}{7}{chapter.2}}
\@writefile{lof}{\addvspace {10\p@ }}
\@writefile{lot}{\addvspace {10\p@ }}
\newlabel{chap:implementation}{{2}{7}{Implementation}{chapter.2}{}}
\@writefile{toc}{\contentsline {section}{\numberline {2.1}Schedulability Analysis}{7}{section.2.1}}
\newlabel{lst:label111}{{2.1}{7}{Hello world}{lstlisting.2.1}{}}
\@writefile{lol}{\contentsline {lstlisting}{\numberline {2.1}Hello world}{7}{lstlisting.2.1}}
\newlabel{lst:label222}{{2.2}{8}{Some Java code}{lstlisting.2.2}{}}
\@writefile{lol}{\contentsline {lstlisting}{\numberline {2.2}Some Java code}{8}{lstlisting.2.2}}
\@writefile{lol}{\contentsline {lstlisting}{\numberline {2.3}Update all tasks in the task model by setting up the \texttt  {executionTime} attribute}{8}{lstlisting.2.3}}
\@writefile{toc}{\contentsline {subsection}{\numberline {2.1.1}Utilization Based Analysis}{9}{subsection.2.1.1}}
\@writefile{lol}{\contentsline {lstlisting}{\numberline {2.4}Checking the period and deadline of every task is not zero, if zero then schedulability analysis will not be done}{9}{lstlisting.2.4}}
\@writefile{lol}{\contentsline {lstlisting}{\numberline {2.5}Checking the necessary condition for schedulability}{10}{lstlisting.2.5}}
\@writefile{toc}{\contentsline {subsection}{\numberline {2.1.2}Response Time Analysis}{10}{subsection.2.1.2}}
\@writefile{lol}{\contentsline {lstlisting}{\numberline {2.6}Exact schedulability analysis without task synchronization for shared resource access inside \texttt  {CheckSystemModel()}}{10}{lstlisting.2.6}}
\@writefile{lol}{\contentsline {lstlisting}{\numberline {2.7}Blocking time calculation for \emph  {simple priority inheritance}}{11}{lstlisting.2.7}}
\@writefile{lol}{\contentsline {lstlisting}{\numberline {2.8}Blocking time calculation for \emph  {priority ceiling protocol}}{11}{lstlisting.2.8}}
\@writefile{lol}{\contentsline {lstlisting}{\numberline {2.9}Schedulability analysis with task synchronization for shared resource access inside \texttt  {CheckSystemModel()}}{11}{lstlisting.2.9}}
\@writefile{toc}{\contentsline {subsection}{\numberline {2.1.3}Demand Bound Analysis}{11}{subsection.2.1.3}}
\@writefile{lol}{\contentsline {lstlisting}{\numberline {2.10}Exact schedulability analysis for EDF without task synchronization for shared resource access inside \texttt  {CheckSystemModel()}}{11}{lstlisting.2.10}}
\@writefile{toc}{\contentsline {section}{\numberline {2.2}Self Suspension}{12}{section.2.2}}
\@writefile{lol}{\contentsline {lstlisting}{\numberline {2.11}Representing self-suspension in the system model}{12}{lstlisting.2.11}}
\@writefile{lol}{\contentsline {lstlisting}{\numberline {2.12}Creation of \texttt  {TerminateSelfSuspensionJob} from \texttt  {TaskMonitor}}{13}{lstlisting.2.12}}
\@writefile{toc}{\contentsline {section}{\numberline {2.3}Non-preemptive Execution}{13}{section.2.3}}
\newlabel{sec:nonPremtiveImpl}{{2.3}{13}{Non-preemptive Execution}{section.2.3}{}}
\@writefile{lol}{\contentsline {lstlisting}{\numberline {2.13}Representing non-preemptive section in the system model}{14}{lstlisting.2.13}}
\@writefile{lol}{\contentsline {lstlisting}{\numberline {2.14}Checking non-preemptive execution inside the dispatch method of the scheduler taken from \emph  {global-EDF}}{14}{lstlisting.2.14}}
\@writefile{toc}{\contentsline {section}{\numberline {2.4}Partitioned EDF}{15}{section.2.4}}
\newlabel{sec:pEDFImpl}{{2.4}{15}{Partitioned EDF}{section.2.4}{}}
\@writefile{lol}{\contentsline {lstlisting}{\numberline {2.15}Task partitioning in the system model for multiprocessor partitioned scheduling approach}{15}{lstlisting.2.15}}
\@writefile{lol}{\contentsline {lstlisting}{\numberline {2.16}P-EDF initializes a single core EDF algorithm for each core}{16}{lstlisting.2.16}}
\citation{BaruahCohenPlaxton1996}
\@writefile{toc}{\contentsline {section}{\numberline {2.5}Proportionate Fairness}{17}{section.2.5}}
\@writefile{lol}{\contentsline {lstlisting}{\numberline {2.17}Generating a dispatch job from \texttt  {Pfair} for every time unit t}{17}{lstlisting.2.17}}
\@writefile{lol}{\contentsline {lstlisting}{\numberline {2.18}Calculation of characteristic string in \texttt  {Pfair}}{17}{lstlisting.2.18}}
\@writefile{lol}{\contentsline {lstlisting}{\numberline {2.19}Categorize tasks into \texttt  {urgetTasks}, \texttt  {tnegruTasks} and \texttt  {contendingTasks}}{18}{lstlisting.2.19}}
\citation{BaruahCohenPlaxton1996}
\@writefile{toc}{\contentsline {subsection}{\numberline {2.5.1}Algorithm PF}{19}{subsection.2.5.1}}
\@writefile{lol}{\contentsline {lstlisting}{\numberline {2.20}Calculating six parameters for the implementation of algorithm~\ref  {alg:naiveCompare}, \texttt  {NaiveCompare} \cite  {BaruahCohenPlaxton1996}}{19}{lstlisting.2.20}}
\citation{BaruahCohenPlaxton1996}
\citation{BaruahCohenPlaxton1996}
\citation{BaruahCohenPlaxton1996}
\@writefile{lol}{\contentsline {lstlisting}{\numberline {2.21}Updating lag multiplied by period value when a task is scheduled \cite  {BaruahCohenPlaxton1996}}{20}{lstlisting.2.21}}
\@writefile{lol}{\contentsline {lstlisting}{\numberline {2.22}Updating lag multiplied by period value when a task is not scheduled \cite  {BaruahCohenPlaxton1996}}{20}{lstlisting.2.22}}
\@writefile{toc}{\contentsline {subsection}{\numberline {2.5.2}Algorithm PD}{20}{subsection.2.5.2}}
\@writefile{lol}{\contentsline {lstlisting}{\numberline {2.23}Calculate PD attributes for heavy tasks}{21}{lstlisting.2.23}}
\@writefile{lol}{\contentsline {lstlisting}{\numberline {2.24}Calculate PD attributes for light tasks}{21}{lstlisting.2.24}}
\citation{BaruahGehrkePlaxton1995}
\citation{BlockLeontyevBrandenburg2007}
\citation{Munk2013}
\@writefile{toc}{\contentsline {section}{\numberline {2.6}Global Suspendable Non-Preemptive EDF}{22}{section.2.6}}
\citation{BlockLeontyevBrandenburg2007}
\@writefile{lol}{\contentsline {lstlisting}{\numberline {2.25}Dispatch method calls itself to process ready tasks}{24}{lstlisting.2.25}}
\@writefile{toc}{\contentsline {section}{\numberline {2.7}Flexible Multiprocessor Locking Protocol}{25}{section.2.7}}
\@writefile{lol}{\contentsline {lstlisting}{\numberline {2.26}Resource nested type in \texttt  {RequestResource} and \texttt  {ReleaseResource}}{25}{lstlisting.2.26}}
\@writefile{lol}{\contentsline {lstlisting}{\numberline {2.27}Providing resource group in the system model}{25}{lstlisting.2.27}}
\@writefile{lol}{\contentsline {lstlisting}{\numberline {2.28}Update \texttt  {ResourceManager} on FMLP group lock}{26}{lstlisting.2.28}}
\@writefile{lol}{\contentsline {lstlisting}{\numberline {2.29}Update \texttt  {ResourceManager} on FMLP group lock release}{26}{lstlisting.2.29}}
\@writefile{toc}{\contentsline {section}{\numberline {2.8}Clusters and Group of Task}{27}{section.2.8}}
\@setckpt{chapter10}{
\setcounter{page}{28}
\setcounter{equation}{0}
\setcounter{enumi}{3}
\setcounter{enumii}{0}
\setcounter{enumiii}{0}
\setcounter{enumiv}{0}
\setcounter{footnote}{0}
\setcounter{mpfootnote}{0}
\setcounter{part}{0}
\setcounter{chapter}{2}
\setcounter{section}{8}
\setcounter{subsection}{0}
\setcounter{subsubsection}{0}
\setcounter{paragraph}{0}
\setcounter{subparagraph}{0}
\setcounter{figure}{0}
\setcounter{table}{0}
\setcounter{NAT@ctr}{0}
\setcounter{lstnumber}{7}
\setcounter{ContinuedFloat}{0}
\setcounter{float@type}{16}
\setcounter{algorithm}{0}
\setcounter{ALG@line}{0}
\setcounter{ALG@rem}{0}
\setcounter{ALG@nested}{0}
\setcounter{ALG@Lnr}{2}
\setcounter{ALG@blocknr}{10}
\setcounter{ALG@storecount}{0}
\setcounter{ALG@tmpcounter}{0}
\setcounter{Item}{3}
\setcounter{Hfootnote}{0}
\setcounter{bookmark@seq@number}{18}
\setcounter{blindtext}{1}
\setcounter{Blindtext}{5}
\setcounter{blind@countparstart}{0}
\setcounter{blindlist}{0}
\setcounter{blindlistlevel}{0}
\setcounter{blindlist@level}{0}
\setcounter{blind@listcount}{0}
\setcounter{blind@levelcount}{0}
\setcounter{blind@randomcount}{0}
\setcounter{blind@randommax}{0}
\setcounter{blind@pangramcount}{0}
\setcounter{blind@pangrammax}{0}
\setcounter{@pps}{0}
\setcounter{@ppsavesec}{0}
\setcounter{@ppsaveapp}{0}
\setcounter{parentequation}{0}
\setcounter{lstlisting}{29}
\setcounter{section@level}{0}
}
