\relax 
\providecommand\hyper@newdestlabel[2]{}
\citation{Munk2013}
\citation{Barr2007}
\citation{BurnsWellings2009}
\citation{NelissenMilojevicGoossens2013}
\@writefile{toc}{\contentsline {chapter}{\numberline {3}Definitions}{19}{chapter.3}}
\@writefile{lof}{\addvspace {10\p@ }}
\@writefile{lot}{\addvspace {10\p@ }}
\newlabel{chap:definitions}{{3}{19}{Definitions}{chapter.3}{}}
\@writefile{toc}{\contentsline {section}{\numberline {3.1}An Embedded System}{19}{section.3.1}}
\@writefile{toc}{\contentsline {section}{\numberline {3.2}A Real-Time System}{19}{section.3.2}}
\citation{NelissenMilojevicGoossens2013}
\citation{NelissenMilojevicGoossens2013}
\citation{DavisBurns2011}
\citation{Holman2004}
\citation{Nissanke1997}
\citation{Munk2013}
\@writefile{toc}{\contentsline {section}{\numberline {3.3}Classification of Multiprocessor Systems}{20}{section.3.3}}
\@writefile{toc}{\contentsline {section}{\numberline {3.4}Tasks}{20}{section.3.4}}
\citation{DavisBurns2011}
\citation{DavisBurns2011}
\citation{Devi2006}
\newlabel{sub-sec:synchronousTaskSet}{{3.4}{21}{Tasks}{section.3.4}{}}
\@writefile{toc}{\contentsline {subsection}{\numberline {3.4.1}Periodicity}{21}{subsection.3.4.1}}
\citation{Munk2013}
\citation{DavisZabosBurns2008}
\@writefile{toc}{\contentsline {subsection}{\numberline {3.4.2}Deadlines}{22}{subsection.3.4.2}}
\newlabel{sub-sec:implicitDeadline}{{3.4.2}{22}{Deadlines}{subsection.3.4.2}{}}
\@writefile{toc}{\contentsline {subsection}{\numberline {3.4.3}State Transitions}{22}{subsection.3.4.3}}
\citation{DavisZabosBurns2008}
\citation{DavisZabosBurns2008}
\providecommand*\caption@xref[2]{\@setref\relax\@undefined{#1}}
\newlabel{fig:stateTransition}{{\caption@xref {fig:stateTransition}{ on input line 85}}{23}{State Transitions}{figure.caption.2}{}}
\@writefile{lof}{\contentsline {figure}{\numberline {3.1}{\ignorespaces State transitions of a real-time task\relax }}{23}{figure.caption.2}}
\@writefile{toc}{\contentsline {section}{\numberline {3.5}Schedulability Tests}{23}{section.3.5}}
\@setckpt{chapter2}{
\setcounter{page}{24}
\setcounter{equation}{0}
\setcounter{enumi}{0}
\setcounter{enumii}{0}
\setcounter{enumiii}{0}
\setcounter{enumiv}{0}
\setcounter{footnote}{0}
\setcounter{mpfootnote}{0}
\setcounter{part}{0}
\setcounter{chapter}{3}
\setcounter{section}{5}
\setcounter{subsection}{0}
\setcounter{subsubsection}{0}
\setcounter{paragraph}{0}
\setcounter{subparagraph}{0}
\setcounter{figure}{1}
\setcounter{table}{0}
\setcounter{NAT@ctr}{0}
\setcounter{lstnumber}{11}
\setcounter{ContinuedFloat}{0}
\setcounter{float@type}{16}
\setcounter{algorithm}{0}
\setcounter{ALG@line}{0}
\setcounter{ALG@rem}{0}
\setcounter{ALG@nested}{0}
\setcounter{ALG@Lnr}{2}
\setcounter{ALG@blocknr}{10}
\setcounter{ALG@storecount}{0}
\setcounter{ALG@tmpcounter}{0}
\setcounter{Item}{0}
\setcounter{Hfootnote}{0}
\setcounter{bookmark@seq@number}{17}
\setcounter{blindtext}{1}
\setcounter{Blindtext}{5}
\setcounter{blind@countparstart}{0}
\setcounter{blindlist}{0}
\setcounter{blindlistlevel}{0}
\setcounter{blindlist@level}{0}
\setcounter{blind@listcount}{0}
\setcounter{blind@levelcount}{0}
\setcounter{blind@randomcount}{0}
\setcounter{blind@randommax}{0}
\setcounter{blind@pangramcount}{0}
\setcounter{blind@pangrammax}{0}
\setcounter{@pps}{0}
\setcounter{@ppsavesec}{0}
\setcounter{@ppsaveapp}{0}
\setcounter{parentequation}{0}
\setcounter{lstlisting}{0}
\setcounter{section@level}{0}
}
