\relax 
\providecommand\hyper@newdestlabel[2]{}
\citation{KaoChandrakasan2000,KaoMukhopadhyayMeimand2003,YeoRao2005}
\citation{BurnsWellings2009,Buttazzo2005,Liu2000}
\citation{Liu1969}
\citation{Carpenter2004}
\@writefile{toc}{\contentsline {chapter}{\numberline {8}Scheduling on Multiprocessor Systems}{53}{chapter.8}}
\@writefile{lof}{\addvspace {10\p@ }}
\@writefile{lot}{\addvspace {10\p@ }}
\newlabel{chap:multicoreTheory}{{8}{53}{Scheduling on Multiprocessor Systems}{chapter.8}{}}
\@writefile{toc}{\contentsline {section}{\numberline {8.1}Taxonomy of Multiprocessor Scheduling Algorithms}{53}{section.8.1}}
\citation{SrinivasanHolmanAndersonBaruah2003}
\citation{DavisBurns2011}
\citation{DavisBurns2011}
\@writefile{toc}{\contentsline {subsection}{\numberline {8.1.1}Allocation}{54}{subsection.8.1.1}}
\@writefile{toc}{\contentsline {subsubsection}{\numberline {8.1.1.1}No Migration}{54}{subsubsection.8.1.1.1}}
\@writefile{toc}{\contentsline {subsubsection}{\numberline {8.1.1.2}Task Level Migration}{54}{subsubsection.8.1.1.2}}
\@writefile{toc}{\contentsline {subsubsection}{\numberline {8.1.1.3}Job Level Migration}{54}{subsubsection.8.1.1.3}}
\citation{DavisBurns2011}
\citation{DavisBurns2011}
\citation{NelissenMilojevicGoossens2013}
\citation{NelissenMilojevicGoossens2013}
\citation{DavisBurns2011}
\@writefile{toc}{\contentsline {subsection}{\numberline {8.1.2}Priority}{55}{subsection.8.1.2}}
\@writefile{toc}{\contentsline {subsubsection}{\numberline {8.1.2.1}Fixed Task Priority}{55}{subsubsection.8.1.2.1}}
\@writefile{toc}{\contentsline {subsubsection}{\numberline {8.1.2.2}Fixed Job Priority}{55}{subsubsection.8.1.2.2}}
\@writefile{toc}{\contentsline {subsubsection}{\numberline {8.1.2.3}Dynamic Priority}{55}{subsubsection.8.1.2.3}}
\@writefile{toc}{\contentsline {subsection}{\numberline {8.1.3}Work-conserving and non-work-conserving}{55}{subsection.8.1.3}}
\@writefile{toc}{\contentsline {section}{\numberline {8.2}Schedulability, Feasibility and Optimality}{55}{section.8.2}}
\citation{NelissenMilojevicGoossens2013}
\citation{DavisBurns2011}
\citation{NelissenMilojevicGoossens2013}
\citation{Baker1991,Baker2005,Carpenter2004,Devi2006}
\citation{DavisBurns2011}
\citation{DavisBurns2011}
\@writefile{toc}{\contentsline {section}{\numberline {8.3}Multiprocessor Scheduling Approaches}{56}{section.8.3}}
\@writefile{toc}{\contentsline {subsection}{\numberline {8.3.1}Partitioned Scheduling}{56}{subsection.8.3.1}}
\newlabel{sub-sec:partitionedScheduling}{{8.3.1}{56}{Partitioned Scheduling}{subsection.8.3.1}{}}
\citation{AnderssonBaruahJonsson2001}
\citation{NelissenMilojevicGoossens2013}
\citation{DavisBurns2011}
\citation{DavisBurns2011}
\@writefile{toc}{\contentsline {subsection}{\numberline {8.3.2}Global Scheduling}{57}{subsection.8.3.2}}
\newlabel{sub-sec:globalScheduling}{{8.3.2}{57}{Global Scheduling}{subsection.8.3.2}{}}
\citation{AnderssonBaruahJonsson2001}
\citation{AnderssonBaruahJonsson2001}
\citation{NelissenMilojevicGoossens2013}
\citation{DavisBurns2011}
\citation{Nemati2010}
\citation{Nemati2010}
\citation{Nemati2010}
\@writefile{toc}{\contentsline {subsection}{\numberline {8.3.3}Hybrid Scheduling}{58}{subsection.8.3.3}}
\citation{RajkumarShaLehoczky1988}
\citation{RajkumarShaLehoczky1988}
\citation{LiuLayland1973}
\citation{DavisBurns2011}
\citation{ChenTripathiBlackmore1994}
\citation{ChenTripathiBlackmore1994}
\citation{GaiLipariDi2001}
\citation{DavisBurns2011}
\citation{DeviLeontyevAnderson2006}
\citation{DavisBurns2011}
\citation{BlockLeontyevBrandenburg2007}
\@writefile{toc}{\contentsline {section}{\numberline {8.4}Resource Sharing}{59}{section.8.4}}
\@setckpt{chapter8}{
\setcounter{page}{60}
\setcounter{equation}{0}
\setcounter{enumi}{0}
\setcounter{enumii}{0}
\setcounter{enumiii}{0}
\setcounter{enumiv}{0}
\setcounter{footnote}{0}
\setcounter{mpfootnote}{0}
\setcounter{part}{0}
\setcounter{chapter}{8}
\setcounter{section}{4}
\setcounter{subsection}{0}
\setcounter{subsubsection}{0}
\setcounter{paragraph}{0}
\setcounter{subparagraph}{0}
\setcounter{figure}{0}
\setcounter{table}{0}
\setcounter{NAT@ctr}{0}
\setcounter{lstnumber}{11}
\setcounter{ContinuedFloat}{0}
\setcounter{float@type}{16}
\setcounter{algorithm}{0}
\setcounter{ALG@line}{0}
\setcounter{ALG@rem}{0}
\setcounter{ALG@nested}{0}
\setcounter{ALG@Lnr}{2}
\setcounter{ALG@blocknr}{10}
\setcounter{ALG@storecount}{0}
\setcounter{ALG@tmpcounter}{0}
\setcounter{Item}{0}
\setcounter{Hfootnote}{0}
\setcounter{bookmark@seq@number}{67}
\setcounter{blindtext}{1}
\setcounter{Blindtext}{5}
\setcounter{blind@countparstart}{0}
\setcounter{blindlist}{0}
\setcounter{blindlistlevel}{0}
\setcounter{blindlist@level}{0}
\setcounter{blind@listcount}{0}
\setcounter{blind@levelcount}{0}
\setcounter{blind@randomcount}{0}
\setcounter{blind@randommax}{0}
\setcounter{blind@pangramcount}{0}
\setcounter{blind@pangrammax}{0}
\setcounter{@pps}{0}
\setcounter{@ppsavesec}{0}
\setcounter{@ppsaveapp}{0}
\setcounter{parentequation}{0}
\setcounter{lstlisting}{0}
\setcounter{section@level}{0}
}
