\relax 
\providecommand\hyper@newdestlabel[2]{}
\citation{LakshmananRajkumar2010}
\citation{RidouardRichardCottet2004,RidouardRichardCottet2006}
\citation{LiuAndersonJames2009}
\citation{LakshmananRajkumar2010}
\citation{LakshmananRajkumar2010}
\@writefile{toc}{\contentsline {chapter}{\numberline {7}Self Suspension, Non-Preemp\discretionary {-}{}{}tive Execution and Interrupt Handling}{49}{chapter.7}}
\@writefile{lof}{\addvspace {10\p@ }}
\@writefile{lot}{\addvspace {10\p@ }}
\newlabel{chap:ssnpeandih}{{7}{49}{Self Suspension, Non-Preemp\-tive Execution and Interrupt Handling}{chapter.7}{}}
\@writefile{toc}{\contentsline {section}{\numberline {7.1}Self Suspension}{49}{section.7.1}}
\newlabel{eq:executionSuspensionSeq}{{7.1}{49}{Self Suspension}{equation.7.1.1}{}}
\citation{BlockLeontyevBrandenburg2007}
\citation{BrandenburgLeontyevAnderson2011}
\@writefile{toc}{\contentsline {section}{\numberline {7.2}Non-Preemptive Execution}{50}{section.7.2}}
\@writefile{toc}{\contentsline {section}{\numberline {7.3}Interrupt Handling}{50}{section.7.3}}
\citation{BrandenburgLeontyevAnderson2011}
\citation{LiuLayland1973}
\citation{JeffayStone1993}
\citation{LiuLayland1973}
\@setckpt{chapter7}{
\setcounter{page}{52}
\setcounter{equation}{1}
\setcounter{enumi}{0}
\setcounter{enumii}{0}
\setcounter{enumiii}{0}
\setcounter{enumiv}{0}
\setcounter{footnote}{0}
\setcounter{mpfootnote}{0}
\setcounter{part}{0}
\setcounter{chapter}{7}
\setcounter{section}{3}
\setcounter{subsection}{0}
\setcounter{subsubsection}{0}
\setcounter{paragraph}{0}
\setcounter{subparagraph}{0}
\setcounter{figure}{0}
\setcounter{table}{0}
\setcounter{NAT@ctr}{0}
\setcounter{lstnumber}{11}
\setcounter{ContinuedFloat}{0}
\setcounter{float@type}{16}
\setcounter{algorithm}{0}
\setcounter{ALG@line}{0}
\setcounter{ALG@rem}{0}
\setcounter{ALG@nested}{0}
\setcounter{ALG@Lnr}{2}
\setcounter{ALG@blocknr}{10}
\setcounter{ALG@storecount}{0}
\setcounter{ALG@tmpcounter}{0}
\setcounter{Item}{0}
\setcounter{Hfootnote}{0}
\setcounter{bookmark@seq@number}{50}
\setcounter{blindtext}{1}
\setcounter{Blindtext}{5}
\setcounter{blind@countparstart}{0}
\setcounter{blindlist}{0}
\setcounter{blindlistlevel}{0}
\setcounter{blindlist@level}{0}
\setcounter{blind@listcount}{0}
\setcounter{blind@levelcount}{0}
\setcounter{blind@randomcount}{0}
\setcounter{blind@randommax}{0}
\setcounter{blind@pangramcount}{0}
\setcounter{blind@pangrammax}{0}
\setcounter{@pps}{0}
\setcounter{@ppsavesec}{0}
\setcounter{@ppsaveapp}{0}
\setcounter{parentequation}{0}
\setcounter{lstlisting}{0}
\setcounter{section@level}{0}
}
