\relax 
\providecommand\hyper@newdestlabel[2]{}
\providecommand\HyperFirstAtBeginDocument{\AtBeginDocument}
\HyperFirstAtBeginDocument{\ifx\hyper@anchor\@undefined
\global\let\oldcontentsline\contentsline
\gdef\contentsline#1#2#3#4{\oldcontentsline{#1}{#2}{#3}}
\global\let\oldnewlabel\newlabel
\gdef\newlabel#1#2{\newlabelxx{#1}#2}
\gdef\newlabelxx#1#2#3#4#5#6{\oldnewlabel{#1}{{#2}{#3}}}
\AtEndDocument{\ifx\hyper@anchor\@undefined
\let\contentsline\oldcontentsline
\let\newlabel\oldnewlabel
\fi}
\fi}
\global\let\hyper@last\relax 
\gdef\HyperFirstAtBeginDocument#1{#1}
\providecommand\HyField@AuxAddToFields[1]{}
\providecommand\HyField@AuxAddToCoFields[2]{}
\select@language{USenglish}
\@writefile{toc}{\select@language{USenglish}}
\@writefile{lof}{\select@language{USenglish}}
\@writefile{lot}{\select@language{USenglish}}
\@input{abstract.aux}
\@input{acknowledgement.aux}
\@input{CH_1.aux}
\@input{CH_2.aux}
\@input{CH_3.aux}
\bibstyle{plainnat}
\bibdata{reference}
\bibcite{AMALT48:online}{{1}{2015}{{Brink and Jatzkowski}}{{}}}
\bibcite{Help-64:online}{{2}{}{{EMF Developer Guide}}{{}}}
\bibcite{fallside2004xml}{{3}{2004}{{Fallside and Walmsley}}{{}}}
\bibcite{gamma1995design}{{4}{1995}{{Gamma}}{{}}}
\bibcite{www.o92:online}{{5}{2003}{{Griffin}}{{}}}
\bibcite{schmidt2006model}{{6}{2006}{{Schmidt}}{{}}}
\bibcite{selic2013modeling}{{7}{2013}{{Selic and G{\'e}rard}}{{}}}
\bibcite{steinberg2008emf}{{8}{2008}{{Steinberg et~al.}}{{Steinberg, Budinsky, Merks, and Paternostro}}}
\@writefile{toc}{\vspace *{\baselineskip }}
\@writefile{toc}{\contentsline {chapter}{Bibliography}{25}{section*.12}}
\citation{Help-64:online}
\citation{AMALT48:online}
\@writefile{toc}{\contentsline {chapter}{List of Figures}{26}{chapter*.14}}
\@writefile{toc}{\contentsline {chapter}{List of Tables}{27}{chapter*.15}}
\@writefile{toc}{\contentsline {chapter}{List of Listings}{28}{chapter*.16}}
\@input{abbreviations.aux}
\@input{declaration.aux}
